%YAML 1.1
%TAG !u! tag:unity3d.com,2011:
--- !u!74 &7400000
AnimationClip:
  m_ObjectHideFlags: 0
  m_CorrespondingSourceObject: {fileID: 0}
  m_PrefabInstance: {fileID: 0}
  m_PrefabAsset: {fileID: 0}
  m_Name: Armature.002_Jump
  serializedVersion: 6
  m_Legacy: 0
  m_Compressed: 0
  m_UseHighQualityCurve: 1
  m_RotationCurves:
  - curve:
      serializedVersion: 2
      m_Curve:
      - serializedVersion: 3
        time: 0
        value: {x: 1.4210855e-14, y: -5.62e-43, z: -3.3881318e-21, w: 1}
        inSlope: {x: 0.18757582, y: -6.355316e-22, z: 2.4815418e-24, w: -0.0007324219}
        outSlope: {x: 0.18757582, y: -6.355316e-22, z: 2.4815418e-24, w: -0.0007324219}
        tangentMode: 0
        weightedMode: 0
        inWeight: {x: 0.33333334, y: 0.33333334, z: 0.33333334, w: 0.33333334}
        outWeight: {x: 0.33333334, y: 0.33333334, z: 0.33333334, w: 0.33333334}
      - serializedVersion: 3
        time: 0.125
        value: {x: 0.059335053, y: -2.0103498e-22, z: -3.3821624e-21, w: 0.99823815}
        inSlope: {x: 0.80097365, y: -2.7138043e-21, z: 1.6920286e-22, w: -0.04993987}
        outSlope: {x: 0.80097365, y: -2.7138043e-21, z: 1.6920286e-22, w: -0.04993987}
        tangentMode: 0
        weightedMode: 0
        inWeight: {x: 0.33333334, y: 0.33333334, z: 0.33333334, w: 0.33333334}
        outWeight: {x: 0.33333334, y: 0.33333334, z: 0.33333334, w: 0.33333334}
      - serializedVersion: 3
        time: 0.33333334
        value: {x: 0.22008891, y: -7.4569025e-22, z: -3.3050543e-21, w: 0.97547984}
        inSlope: {x: 0.33789262, y: -1.1448247e-21, z: 2.5037163e-22, w: -0.07389666}
        outSlope: {x: 0.33789262, y: -1.1448247e-21, z: 2.5037163e-22, w: -0.07389666}
        tangentMode: 0
        weightedMode: 0
        inWeight: {x: 0.33333334, y: 0.33333334, z: 0.33333334, w: 0.33333334}
        outWeight: {x: 0.33333334, y: 0.33333334, z: 0.33333334, w: 0.33333334}
      - serializedVersion: 3
        time: 0.625
        value: {x: 0.08063722, y: -2.7320952e-22, z: -3.3770985e-21, w: 0.99674356}
        inSlope: {x: -0.782441, y: 2.6510133e-21, z: -2.182522e-22, w: 0.06441668}
        outSlope: {x: -0.782441, y: 2.6510133e-21, z: -2.182522e-22, w: 0.06441668}
        tangentMode: 0
        weightedMode: 0
        inWeight: {x: 0.33333334, y: 0.33333334, z: 0.33333334, w: 0.33333334}
        outWeight: {x: 0.33333334, y: 0.33333334, z: 0.33333334, w: 0.33333334}
      - serializedVersion: 3
        time: 0.7916667
        value: {x: 1.4210855e-14, y: -5.62e-43, z: -3.3881318e-21, w: 1}
        inSlope: {x: -0.15312846, y: 5.188194e-22, z: -1.6527448e-24, w: 0.00048780418}
        outSlope: {x: -0.15312846, y: 5.188194e-22, z: -1.6527448e-24, w: 0.00048780418}
        tangentMode: 0
        weightedMode: 0
        inWeight: {x: 0.33333334, y: 0.33333334, z: 0.33333334, w: 0.33333334}
        outWeight: {x: 0.33333334, y: 0.33333334, z: 0.33333334, w: 0.33333334}
      m_PreInfinity: 2
      m_PostInfinity: 2
      m_RotationOrder: 4
    path: Armature.002/Principal/Cintura/Espina1
  - curve:
      serializedVersion: 2
      m_Curve:
      - serializedVersion: 3
        time: 0
        value: {x: -0.022138402, y: -0.25014064, z: 0.9591168, w: 0.13051607}
        inSlope: {x: 0.039245054, y: -0.2835195, z: -0.076868534, w: 0.014111996}
        outSlope: {x: 0.039245054, y: -0.2835195, z: -0.076868534, w: 0.014111996}
        tangentMode: 0
        weightedMode: 0
        inWeight: {x: 0.33333334, y: 0.33333334, z: 0.33333334, w: 0.33333334}
        outWeight: {x: 0.33333334, y: 0.33333334, z: 0.33333334, w: 0.33333334}
      - serializedVersion: 3
        time: 0.083333336
        value: {x: -0.016256884, y: -0.29341048, z: 0.9465584, w: 0.13294062}
        inSlope: {x: 0.11933111, y: -0.91663927, z: -0.2983539, w: 0.061486427}
        outSlope: {x: 0.11933111, y: -0.91663927, z: -0.2983539, w: 0.061486427}
        tangentMode: 0
        weightedMode: 0
        inWeight: {x: 0.33333334, y: 0.33333334, z: 0.33333334, w: 0.33333334}
        outWeight: {x: 0.33333334, y: 0.33333334, z: 0.33333334, w: 0.33333334}
      - serializedVersion: 3
        time: 0.20833334
        value: {x: 0.0052835527, y: -0.44385594, z: 0.88561976, w: 0.13653433}
        inSlope: {x: 0.18975991, y: -1.2316904, z: -0.6150649, w: -0.0070670857}
        outSlope: {x: 0.18975991, y: -1.2316904, z: -0.6150649, w: -0.0070670857}
        tangentMode: 0
        weightedMode: 0
        inWeight: {x: 0.33333334, y: 0.33333334, z: 0.33333334, w: 0.33333334}
        outWeight: {x: 0.33333334, y: 0.33333334, z: 0.33333334, w: 0.33333334}
      - serializedVersion: 3
        time: 0.33333334
        value: {x: 0.024387412, y: -0.5637202, z: 0.81458586, w: 0.13444246}
        inSlope: {x: 0.087689705, y: -0.5336567, z: -0.36250743, w: -0.015123013}
        outSlope: {x: 0.087689705, y: -0.5336567, z: -0.36250743, w: -0.015123013}
        tangentMode: 0
        weightedMode: 0
        inWeight: {x: 0.33333334, y: 0.33333334, z: 0.33333334, w: 0.33333334}
        outWeight: {x: 0.33333334, y: 0.33333334, z: 0.33333334, w: 0.33333334}
      - serializedVersion: 3
        time: 0.4166667
        value: {x: 0.023895774, y: -0.56073904, z: 0.8166408, w: 0.13453072}
        inSlope: {x: -0.17475776, y: 1.0778841, z: 0.69082123, w: 0.02534759}
        outSlope: {x: -0.17475776, y: 1.0778841, z: 0.69082123, w: 0.02534759}
        tangentMode: 0
        weightedMode: 0
        inWeight: {x: 0.33333334, y: 0.33333334, z: 0.33333334, w: 0.33333334}
        outWeight: {x: 0.33333334, y: 0.33333334, z: 0.33333334, w: 0.33333334}
      - serializedVersion: 3
        time: 0.45833334
        value: {x: 0.012303208, y: -0.4888456, z: 0.8616035, w: 0.13608138}
        inSlope: {x: -0.41078305, y: 2.6505156, z: 1.3662689, w: 0.020571474}
        outSlope: {x: -0.41078305, y: 2.6505156, z: 1.3662689, w: 0.020571474}
        tangentMode: 0
        weightedMode: 0
        inWeight: {x: 0.33333334, y: 0.33333334, z: 0.33333334, w: 0.33333334}
        outWeight: {x: 0.33333334, y: 0.33333334, z: 0.33333334, w: 0.33333334}
      - serializedVersion: 3
        time: 0.5
        value: {x: -0.010336137, y: -0.3398628, z: 0.9304965, w: 0.13624501}
        inSlope: {x: -0.70090795, y: 4.8957396, z: 1.5085386, w: -0.08950491}
        outSlope: {x: -0.70090795, y: 4.8957396, z: 1.5085386, w: -0.08950491}
        tangentMode: 0
        weightedMode: 0
        inWeight: {x: 0.33333334, y: 0.33333334, z: 0.33333334, w: 0.33333334}
        outWeight: {x: 0.33333334, y: 0.33333334, z: 0.33333334, w: 0.33333334}
      - serializedVersion: 3
        time: 0.5416667
        value: {x: -0.046105802, y: -0.08086719, z: 0.98731506, w: 0.12862264}
        inSlope: {x: -0.92946535, y: 7.2705183, z: 0.28487837, w: -0.37853843}
        outSlope: {x: -0.92946535, y: 7.2705183, z: 0.28487837, w: -0.37853843}
        tangentMode: 0
        weightedMode: 0
        inWeight: {x: 0.33333334, y: 0.33333334, z: 0.33333334, w: 0.33333334}
        outWeight: {x: 0.33333334, y: 0.33333334, z: 0.33333334, w: 0.33333334}
      - serializedVersion: 3
        time: 0.5833334
        value: {x: -0.08779162, y: 0.26601404, z: 0.9542364, w: 0.104700126}
        inSlope: {x: -0.86058885, y: 7.8181105, z: -2.1307569, w: -0.7131673}
        outSlope: {x: -0.86058885, y: 7.8181105, z: -2.1307569, w: -0.7131673}
        tangentMode: 0
        weightedMode: 0
        inWeight: {x: 0.33333334, y: 0.33333334, z: 0.33333334, w: 0.33333334}
        outWeight: {x: 0.33333334, y: 0.33333334, z: 0.33333334, w: 0.33333334}
      - serializedVersion: 3
        time: 0.625
        value: {x: -0.11782153, y: 0.5706419, z: 0.8097521, w: 0.06919205}
        inSlope: {x: -0.5211487, y: 5.8351283, z: -3.7165282, w: -0.7993473}
        outSlope: {x: -0.5211487, y: 5.8351283, z: -3.7165282, w: -0.7993473}
        tangentMode: 0
        weightedMode: 0
        inWeight: {x: 0.33333334, y: 0.33333334, z: 0.33333334, w: 0.33333334}
        outWeight: {x: 0.33333334, y: 0.33333334, z: 0.33333334, w: 0.33333334}
      - serializedVersion: 3
        time: 0.6666667
        value: {x: -0.13122065, y: 0.7522745, z: 0.64452577, w: 0.038087875}
        inSlope: {x: -0.21203817, y: 3.2524817, z: -3.4482248, w: -0.6184695}
        outSlope: {x: -0.21203817, y: 3.2524817, z: -3.4482248, w: -0.6184695}
        tangentMode: 0
        weightedMode: 0
        inWeight: {x: 0.33333334, y: 0.33333334, z: 0.33333334, w: 0.33333334}
        outWeight: {x: 0.33333334, y: 0.33333334, z: 0.33333334, w: 0.33333334}
      - serializedVersion: 3
        time: 0.7083334
        value: {x: -0.13549139, y: 0.84168214, z: 0.5223999, w: 0.017652903}
        inSlope: {x: -0.063130066, y: 1.5519369, z: -2.3129191, w: -0.37895983}
        outSlope: {x: -0.063130066, y: 1.5519369, z: -2.3129191, w: -0.37895983}
        tangentMode: 0
        weightedMode: 0
        inWeight: {x: 0.33333334, y: 0.33333334, z: 0.33333334, w: 0.33333334}
        outWeight: {x: 0.33333334, y: 0.33333334, z: 0.33333334, w: 0.33333334}
      - serializedVersion: 3
        time: 0.75
        value: {x: -0.1364815, y: 0.8816026, z: 0.45178252, w: 0.0065078875}
        inSlope: {x: -0.013374935, y: 0.6187788, z: -1.1292086, w: -0.17709891}
        outSlope: {x: -0.013374935, y: 0.6187788, z: -1.1292086, w: -0.17709891}
        tangentMode: 0
        weightedMode: 0
        inWeight: {x: 0.33333334, y: 0.33333334, z: 0.33333334, w: 0.33333334}
        outWeight: {x: 0.33333334, y: 0.33333334, z: 0.33333334, w: 0.33333334}
      - serializedVersion: 3
        time: 0.7916667
        value: {x: -0.13660596, y: 0.893247, z: 0.42829925, w: 0.0028946686}
        inSlope: {x: 0.000116407755, y: -0.0079007, z: 0.0153898, w: 0.0023842864}
        outSlope: {x: 0.000116407755, y: -0.0079007, z: 0.0153898, w: 0.0023842864}
        tangentMode: 0
        weightedMode: 0
        inWeight: {x: 0.33333334, y: 0.33333334, z: 0.33333334, w: 0.33333334}
        outWeight: {x: 0.33333334, y: 0.33333334, z: 0.33333334, w: 0.33333334}
      - serializedVersion: 3
        time: 0.8333334
        value: {x: -0.1364718, y: 0.8809442, z: 0.453065, w: 0.006706578}
        inSlope: {x: 0.014342498, y: -0.6470315, z: 1.1745014, w: 0.18439838}
        outSlope: {x: 0.014342498, y: -0.6470315, z: 1.1745014, w: 0.18439838}
        tangentMode: 0
        weightedMode: 0
        inWeight: {x: 0.33333334, y: 0.33333334, z: 0.33333334, w: 0.33333334}
        outWeight: {x: 0.33333334, y: 0.33333334, z: 0.33333334, w: 0.33333334}
      - serializedVersion: 3
        time: 0.875
        value: {x: -0.13541076, y: 0.83932775, z: 0.5261743, w: 0.018261192}
        inSlope: {x: 0.06516908, y: -1.5803425, z: 2.3397064, w: 0.3839417}
        outSlope: {x: 0.06516908, y: -1.5803425, z: 2.3397064, w: 0.3839417}
        tangentMode: 0
        weightedMode: 0
        inWeight: {x: 0.33333334, y: 0.33333334, z: 0.33333334, w: 0.33333334}
        outWeight: {x: 0.33333334, y: 0.33333334, z: 0.33333334, w: 0.33333334}
      - serializedVersion: 3
        time: 0.9166667
        value: {x: -0.13104104, y: 0.749249, z: 0.64804053, w: 0.03870172}
        inSlope: {x: 0.20424582, y: -3.1440096, z: 3.345901, w: 0.59943706}
        outSlope: {x: 0.20424582, y: -3.1440096, z: 3.345901, w: 0.59943706}
        tangentMode: 0
        weightedMode: 0
        inWeight: {x: 0.33333334, y: 0.33333334, z: 0.33333334, w: 0.33333334}
        outWeight: {x: 0.33333334, y: 0.33333334, z: 0.33333334, w: 0.33333334}
      - serializedVersion: 3
        time: 0.9583334
        value: {x: -0.11839026, y: 0.57732683, z: 0.80499953, w: 0.068214305}
        inSlope: {x: 0.46416777, y: -5.292802, z: 3.52108, w: 0.7438934}
        outSlope: {x: 0.46416777, y: -5.292802, z: 3.52108, w: 0.7438934}
        tangentMode: 0
        weightedMode: 0
        inWeight: {x: 0.33333334, y: 0.33333334, z: 0.33333334, w: 0.33333334}
        outWeight: {x: 0.33333334, y: 0.33333334, z: 0.33333334, w: 0.33333334}
      - serializedVersion: 3
        time: 1
        value: {x: -0.09236041, y: 0.30818233, z: 0.9414638, w: 0.10069282}
        inSlope: {x: 0.7337409, y: -6.8520045, z: 2.2272196, w: 0.6702261}
        outSlope: {x: 0.7337409, y: -6.8520045, z: 2.2272196, w: 0.6702261}
        tangentMode: 0
        weightedMode: 0
        inWeight: {x: 0.33333334, y: 0.33333334, z: 0.33333334, w: 0.33333334}
        outWeight: {x: 0.33333334, y: 0.33333334, z: 0.33333334, w: 0.33333334}
      - serializedVersion: 3
        time: 1.0416667
        value: {x: -0.057245146, y: 0.0063261488, z: 0.9906011, w: 0.124066494}
        inSlope: {x: 0.8004006, y: -6.4891157, z: 0.2576172, w: 0.4021498}
        outSlope: {x: 0.8004006, y: -6.4891157, z: 0.2576172, w: 0.4021498}
        tangentMode: 0
        weightedMode: 0
        inWeight: {x: 0.33333334, y: 0.33333334, z: 0.33333334, w: 0.33333334}
        outWeight: {x: 0.33333334, y: 0.33333334, z: 0.33333334, w: 0.33333334}
      - serializedVersion: 3
        time: 1.0833334
        value: {x: -0.02566032, y: -0.23257765, z: 0.96293205, w: 0.13420534}
        inSlope: {x: 0.6377957, y: -4.660561, z: -0.91941345, w: 0.15010345}
        outSlope: {x: 0.6377957, y: -4.660561, z: -0.91941345, w: 0.15010345}
        tangentMode: 0
        weightedMode: 0
        inWeight: {x: 0.33333334, y: 0.33333334, z: 0.33333334, w: 0.33333334}
        outWeight: {x: 0.33333334, y: 0.33333334, z: 0.33333334, w: 0.33333334}
      - serializedVersion: 3
        time: 1.125
        value: {x: -0.0040955557, y: -0.38205355, z: 0.9139834, w: 0.1365751}
        inSlope: {x: 0.40179235, y: -2.7321024, z: -1.0286613, w: 0.02648309}
        outSlope: {x: 0.40179235, y: -2.7321024, z: -1.0286613, w: 0.02648309}
        tangentMode: 0
        weightedMode: 0
        inWeight: {x: 0.33333334, y: 0.33333334, z: 0.33333334, w: 0.33333334}
        outWeight: {x: 0.33333334, y: 0.33333334, z: 0.33333334, w: 0.33333334}
      - serializedVersion: 3
        time: 1.1666667
        value: {x: 0.00782238, y: -0.46025285, z: 0.87721026, w: 0.13641226}
        inSlope: {x: 0.18711302, y: -1.2201804, z: -0.5940063, w: -0.0050775995}
        outSlope: {x: 0.18711302, y: -1.2201804, z: -0.5940063, w: -0.0050775995}
        tangentMode: 0
        weightedMode: 0
        inWeight: {x: 0.33333334, y: 0.33333334, z: 0.33333334, w: 0.33333334}
        outWeight: {x: 0.33333334, y: 0.33333334, z: 0.33333334, w: 0.33333334}
      - serializedVersion: 3
        time: 1.25
        value: {x: 0.009915897, y: -0.47595716, z: 0.868691, w: 0.13690263}
        inSlope: {x: -0.047601514, y: 0.30433387, z: 0.16452654, w: 0.0033211303}
        outSlope: {x: -0.047601514, y: 0.30433387, z: 0.16452654, w: 0.0033211303}
        tangentMode: 0
        weightedMode: 0
        inWeight: {x: 0.33333334, y: 0.33333334, z: 0.33333334, w: 0.33333334}
        outWeight: {x: 0.33333334, y: 0.33333334, z: 0.33333334, w: 0.33333334}
      - serializedVersion: 3
        time: 1.4583334
        value: {x: -0.01104991, y: -0.3340104, z: 0.93267304, w: 0.135779}
        inSlope: {x: -0.11680026, y: 0.7993884, z: 0.2876275, w: -0.009425471}
        outSlope: {x: -0.11680026, y: 0.7993884, z: 0.2876275, w: -0.009425471}
        tangentMode: 0
        weightedMode: 0
        inWeight: {x: 0.33333334, y: 0.33333334, z: 0.33333334, w: 0.33333334}
        outWeight: {x: 0.33333334, y: 0.33333334, z: 0.33333334, w: 0.33333334}
      - serializedVersion: 3
        time: 1.625
        value: {x: -0.022724466, y: -0.2500881, z: 0.95880836, w: 0.1327631}
        inSlope: {x: -0.022119483, y: 0.16219297, z: 0.04348473, w: -0.007804163}
        outSlope: {x: -0.022119483, y: 0.16219297, z: 0.04348473, w: -0.007804163}
        tangentMode: 0
        weightedMode: 0
        inWeight: {x: 0.33333334, y: 0.33333334, z: 0.33333334, w: 0.33333334}
        outWeight: {x: 0.33333334, y: 0.33333334, z: 0.33333334, w: 0.33333334}
      m_PreInfinity: 2
      m_PostInfinity: 2
      m_RotationOrder: 4
    path: Armature.002/Principal/Cintura/Espina1/Espina2/Brazo.L
  - curve:
      serializedVersion: 2
      m_Curve:
      - serializedVersion: 3
        time: 0
        value: {x: -0.08830275, y: -0.2636644, z: 0.95511115, w: -0.10220774}
        inSlope: {x: -0.01314801, y: -0.28865147, z: -0.08701515, w: -0.038287997}
        outSlope: {x: -0.01314801, y: -0.28865147, z: -0.08701515, w: -0.038287997}
        tangentMode: 0
        weightedMode: 0
        inWeight: {x: 0.33333334, y: 0.33333334, z: 0.33333334, w: 0.33333334}
        outWeight: {x: 0.33333334, y: 0.33333334, z: 0.33333334, w: 0.33333334}
      - serializedVersion: 3
        time: 0.083333336
        value: {x: -0.09223931, y: -0.30704927, z: 0.941834, w: -0.10080391}
        inSlope: {x: -0.09732494, y: -0.9133205, z: -0.30524182, w: 0.090385884}
        outSlope: {x: -0.09732494, y: -0.9133205, z: -0.30524182, w: 0.090385884}
        tangentMode: 0
        weightedMode: 0
        inWeight: {x: 0.33333334, y: 0.33333334, z: 0.33333334, w: 0.33333334}
        outWeight: {x: 0.33333334, y: 0.33333334, z: 0.33333334, w: 0.33333334}
      - serializedVersion: 3
        time: 0.20833334
        value: {x: -0.10745459, y: -0.4566472, z: 0.87909263, w: -0.084397994}
        inSlope: {x: -0.11750946, y: -1.2226458, z: -0.6328555, w: 0.14916551}
        outSlope: {x: -0.11750946, y: -1.2226458, z: -0.6328555, w: 0.14916551}
        tangentMode: 0
        weightedMode: 0
        inWeight: {x: 0.33333334, y: 0.33333334, z: 0.33333334, w: 0.33333334}
        outWeight: {x: 0.33333334, y: 0.33333334, z: 0.33333334, w: 0.33333334}
      - serializedVersion: 3
        time: 0.33333334
        value: {x: -0.11823307, y: -0.5754692, z: 0.80632854, w: -0.06848696}
        inSlope: {x: -0.045267653, y: -0.5283452, z: -0.37020573, w: 0.07660882}
        outSlope: {x: -0.045267653, y: -0.5283452, z: -0.37020573, w: 0.07660882}
        tangentMode: 0
        weightedMode: 0
        inWeight: {x: 0.33333334, y: 0.33333334, z: 0.33333334, w: 0.33333334}
        outWeight: {x: 0.33333334, y: 0.33333334, z: 0.33333334, w: 0.33333334}
      - serializedVersion: 3
        time: 0.4166667
        value: {x: -0.117981985, y: -0.5725181, z: 0.8084266, w: -0.06891867}
        inSlope: {x: 0.09386472, y: 1.067756, z: 0.70637304, w: -0.14957295}
        outSlope: {x: 0.09386472, y: 1.067756, z: 0.70637304, w: -0.14957295}
        tangentMode: 0
        weightedMode: 0
        inWeight: {x: 0.33333334, y: 0.33333334, z: 0.33333334, w: 0.33333334}
        outWeight: {x: 0.33333334, y: 0.33333334, z: 0.33333334, w: 0.33333334}
      - serializedVersion: 3
        time: 0.45833334
        value: {x: -0.11165574, y: -0.501284, z: 0.8544267, w: -0.078756034}
        inSlope: {x: 0.25036407, y: 2.6304324, z: 1.4045465, w: -0.3263229}
        outSlope: {x: 0.25036407, y: 2.6304324, z: 1.4045465, w: -0.3263229}
        tangentMode: 0
        weightedMode: 0
        inWeight: {x: 0.33333334, y: 0.33333334, z: 0.33333334, w: 0.33333334}
        outWeight: {x: 0.33333334, y: 0.33333334, z: 0.33333334, w: 0.33333334}
      - serializedVersion: 3
        time: 0.5
        value: {x: -0.09711832, y: -0.35331547, z: 0.92547214, w: -0.09611224}
        inSlope: {x: 0.52213085, y: 4.8733582, z: 1.5793481, w: -0.47609496}
        outSlope: {x: 0.52213085, y: 4.8733582, z: 1.5793481, w: -0.47609496}
        tangentMode: 0
        weightedMode: 0
        inWeight: {x: 0.33333334, y: 0.33333334, z: 0.33333334, w: 0.33333334}
        outWeight: {x: 0.33333334, y: 0.33333334, z: 0.33333334, w: 0.33333334}
      - serializedVersion: 3
        time: 0.5416667
        value: {x: -0.06814483, y: -0.09517073, z: 0.98603904, w: -0.11843062}
        inSlope: {x: 0.89037985, y: 7.265625, z: 0.39024118, w: -0.46305814}
        outSlope: {x: 0.89037985, y: 7.265625, z: 0.39024118, w: -0.46305814}
        tangentMode: 0
        weightedMode: 0
        inWeight: {x: 0.33333334, y: 0.33333334, z: 0.33333334, w: 0.33333334}
        outWeight: {x: 0.33333334, y: 0.33333334, z: 0.33333334, w: 0.33333334}
      - serializedVersion: 3
        time: 0.5833334
        value: {x: -0.02291996, y: 0.25215358, z: 0.95799226, w: -0.13470043}
        inSlope: {x: 1.1007428, y: 7.8481736, z: -2.0172014, w: -0.19386238}
        outSlope: {x: 1.1007428, y: 7.8481736, z: -2.0172014, w: -0.19386238}
        tangentMode: 0
        weightedMode: 0
        inWeight: {x: 0.33333334, y: 0.33333334, z: 0.33333334, w: 0.33333334}
        outWeight: {x: 0.33333334, y: 0.33333334, z: 0.33333334, w: 0.33333334}
      - serializedVersion: 3
        time: 0.625
        value: {x: 0.023583716, y: 0.5588436, z: 0.81793904, w: -0.13458583}
        inSlope: {x: 0.94657433, y: 5.888389, z: -3.6315513, w: 0.12059188}
        outSlope: {x: 0.94657433, y: 5.888389, z: -3.6315513, w: 0.12059188}
        tangentMode: 0
        weightedMode: 0
        inWeight: {x: 0.33333334, y: 0.33333334, z: 0.33333334, w: 0.33333334}
        outWeight: {x: 0.33333334, y: 0.33333334, z: 0.33333334, w: 0.33333334}
      - serializedVersion: 3
        time: 0.6666667
        value: {x: 0.055961203, y: 0.74285245, z: 0.655363, w: -0.124651104}
        inSlope: {x: 0.60856855, y: 3.302127, z: -3.4007132, w: 0.23897862}
        outSlope: {x: 0.60856855, y: 3.302127, z: -3.4007132, w: 0.23897862}
        tangentMode: 0
        weightedMode: 0
        inWeight: {x: 0.33333334, y: 0.33333334, z: 0.33333334, w: 0.33333334}
        outWeight: {x: 0.33333334, y: 0.33333334, z: 0.33333334, w: 0.33333334}
      - serializedVersion: 3
        time: 0.7083334
        value: {x: 0.074297786, y: 0.834021, z: 0.53454614, w: -0.11467093}
        inSlope: {x: 0.32963645, y: 1.5853014, z: -2.2901793, w: 0.19732289}
        outSlope: {x: 0.32963645, y: 1.5853014, z: -2.2901793, w: 0.19732289}
        tangentMode: 0
        weightedMode: 0
        inWeight: {x: 0.33333334, y: 0.33333334, z: 0.33333334, w: 0.33333334}
        outWeight: {x: 0.33333334, y: 0.33333334, z: 0.33333334, w: 0.33333334}
      - serializedVersion: 3
        time: 0.75
        value: {x: 0.08343091, y: 0.8749609, z: 0.46451476, w: -0.10820753}
        inSlope: {x: 0.14360073, y: 0.63508314, z: -1.1201215, w: 0.10450375}
        outSlope: {x: 0.14360073, y: 0.63508314, z: -1.1201215, w: 0.10450375}
        tangentMode: 0
        weightedMode: 0
        inWeight: {x: 0.33333334, y: 0.33333334, z: 0.33333334, w: 0.33333334}
        outWeight: {x: 0.33333334, y: 0.33333334, z: 0.33333334, w: 0.33333334}
      - serializedVersion: 3
        time: 0.7916667
        value: {x: 0.086264506, y: 0.88694453, z: 0.44120273, w: -0.10596229}
        inSlope: {x: -0.0018897913, y: -0.008123875, z: 0.015273541, w: -0.0014546514}
        outSlope: {x: -0.0018897913, y: -0.008123875, z: 0.015273541, w: -0.0014546514}
        tangentMode: 0
        weightedMode: 0
        inWeight: {x: 0.33333334, y: 0.33333334, z: 0.33333334, w: 0.33333334}
        outWeight: {x: 0.33333334, y: 0.33333334, z: 0.33333334, w: 0.33333334}
      - serializedVersion: 3
        time: 0.8333334
        value: {x: 0.083273426, y: 0.8742839, z: 0.46578756, w: -0.10832875}
        inSlope: {x: -0.14979109, y: -0.6639902, z: 1.1649996, w: -0.1084947}
        outSlope: {x: -0.14979109, y: -0.6639902, z: 1.1649996, w: -0.1084947}
        tangentMode: 0
        weightedMode: 0
        inWeight: {x: 0.33333334, y: 0.33333334, z: 0.33333334, w: 0.33333334}
        outWeight: {x: 0.33333334, y: 0.33333334, z: 0.33333334, w: 0.33333334}
      - serializedVersion: 3
        time: 0.875
        value: {x: 0.07378192, y: 0.83161205, z: 0.538286, w: -0.11500351}
        inSlope: {x: -0.3347552, y: -1.6140926, z: 2.3165522, w: -0.19899596}
        outSlope: {x: -0.3347552, y: -1.6140926, z: 2.3165522, w: -0.19899596}
        tangentMode: 0
        weightedMode: 0
        inWeight: {x: 0.33333334, y: 0.33333334, z: 0.33333334, w: 0.33333334}
        outWeight: {x: 0.33333334, y: 0.33333334, z: 0.33333334, w: 0.33333334}
      - serializedVersion: 3
        time: 0.9166667
        value: {x: 0.05537716, y: 0.7397762, z: 0.65883356, w: -0.12491175}
        inSlope: {x: -0.5890149, y: -3.1921813, z: 3.299973, w: -0.23259032}
        outSlope: {x: -0.5890149, y: -3.1921813, z: 3.299973, w: -0.23259032}
        tangentMode: 0
        weightedMode: 0
        inWeight: {x: 0.33333334, y: 0.33333334, z: 0.33333334, w: 0.33333334}
        outWeight: {x: 0.33333334, y: 0.33333334, z: 0.33333334, w: 0.33333334}
      - serializedVersion: 3
        time: 0.9583334
        value: {x: 0.024697322, y: 0.5655968, z: 0.81328386, w: -0.13438605}
        inSlope: {x: -0.8674178, y: -5.343287, z: 3.4439857, w: -0.12809645}
        outSlope: {x: -0.8674178, y: -5.343287, z: 3.4439857, w: -0.12809645}
        tangentMode: 0
        weightedMode: 0
        inWeight: {x: 0.33333334, y: 0.33333334, z: 0.33333334, w: 0.33333334}
        outWeight: {x: 0.33333334, y: 0.33333334, z: 0.33333334, w: 0.33333334}
      - serializedVersion: 3
        time: 1
        value: {x: -0.016907632, y: 0.29450247, z: 0.9458323, w: -0.13558646}
        inSlope: {x: -0.9858759, y: -6.8835697, z: 2.1276581, w: 0.12502106}
        outSlope: {x: -0.9858759, y: -6.8835697, z: 2.1276581, w: 0.12502106}
        tangentMode: 0
        weightedMode: 0
        inWeight: {x: 0.33333334, y: 0.33333334, z: 0.33333334, w: 0.33333334}
        outWeight: {x: 0.33333334, y: 0.33333334, z: 0.33333334, w: 0.33333334}
      - serializedVersion: 3
        time: 1.0416667
        value: {x: -0.05745904, y: -0.0080343075, z: 0.99058867, w: -0.1239676}
        inSlope: {x: -0.82478464, y: -6.4921665, z: 0.16352469, w: 0.34942603}
        outSlope: {x: -0.82478464, y: -6.4921665, z: 0.16352469, w: 0.34942603}
        tangentMode: 0
        weightedMode: 0
        inWeight: {x: 0.33333334, y: 0.33333334, z: 0.33333334, w: 0.33333334}
        outWeight: {x: 0.33333334, y: 0.33333334, z: 0.33333334, w: 0.33333334}
      - serializedVersion: 3
        time: 1.0833334
        value: {x: -0.08563974, y: -0.24651173, z: 0.9594595, w: -0.10646761}
        inSlope: {x: -0.527429, y: -4.6467433, z: -0.9868758, w: 0.38875884}
        outSlope: {x: -0.527429, y: -4.6467433, z: -0.9868758, w: 0.38875884}
        tangentMode: 0
        weightedMode: 0
        inWeight: {x: 0.33333334, y: 0.33333334, z: 0.33333334, w: 0.33333334}
        outWeight: {x: 0.33333334, y: 0.33333334, z: 0.33333334, w: 0.33333334}
      - serializedVersion: 3
        time: 1.125
        value: {x: -0.10141142, y: -0.39526254, z: 0.9083491, w: -0.09157106}
        inSlope: {x: -0.2803933, y: -2.7169027, z: -1.068157, w: 0.28899413}
        outSlope: {x: -0.2803933, y: -2.7169027, z: -1.068157, w: 0.28899413}
        tangentMode: 0
        weightedMode: 0
        inWeight: {x: 0.33333334, y: 0.33333334, z: 0.33333334, w: 0.33333334}
        outWeight: {x: 0.33333334, y: 0.33333334, z: 0.33333334, w: 0.33333334}
      - serializedVersion: 3
        time: 1.1666667
        value: {x: -0.109005846, y: -0.4729203, z: 0.8704464, w: -0.082384765}
        inSlope: {x: -0.11731163, y: -1.2114414, z: -0.61163163, w: 0.14586237}
        outSlope: {x: -0.11731163, y: -1.2114414, z: -0.61163163, w: 0.14586237}
        tangentMode: 0
        weightedMode: 0
        inWeight: {x: 0.33333334, y: 0.33333334, z: 0.33333334, w: 0.33333334}
        outWeight: {x: 0.33333334, y: 0.33333334, z: 0.33333334, w: 0.33333334}
      - serializedVersion: 3
        time: 1.25
        value: {x: -0.11046942, y: -0.4884935, z: 0.8618031, w: -0.08041157}
        inSlope: {x: 0.02829665, y: 0.30191845, z: 0.16892177, w: -0.038423054}
        outSlope: {x: 0.02829665, y: 0.30191845, z: 0.16892177, w: -0.038423054}
        tangentMode: 0
        weightedMode: 0
        inWeight: {x: 0.33333334, y: 0.33333334, z: 0.33333334, w: 0.33333334}
        outWeight: {x: 0.33333334, y: 0.33333334, z: 0.33333334, w: 0.33333334}
      - serializedVersion: 3
        time: 1.4583334
        value: {x: -0.09651211, y: -0.3474897, z: 0.9276753, w: -0.09672098}
        inSlope: {x: 0.08282597, y: 0.79513407, z: 0.29918534, w: -0.08289321}
        outSlope: {x: 0.08282597, y: 0.79513407, z: 0.29918534, w: -0.08289321}
        tangentMode: 0
        weightedMode: 0
        inWeight: {x: 0.33333334, y: 0.33333334, z: 0.33333334, w: 0.33333334}
        outWeight: {x: 0.33333334, y: 0.33333334, z: 0.33333334, w: 0.33333334}
      - serializedVersion: 3
        time: 1.625
        value: {x: -0.087983266, y: -0.26377118, z: 0.95498663, w: -0.10336476}
        inSlope: {x: 0.007591374, y: 0.16505758, z: 0.049305487, w: 0.021779558}
        outSlope: {x: 0.007591374, y: 0.16505758, z: 0.049305487, w: 0.021779558}
        tangentMode: 0
        weightedMode: 0
        inWeight: {x: 0.33333334, y: 0.33333334, z: 0.33333334, w: 0.33333334}
        outWeight: {x: 0.33333334, y: 0.33333334, z: 0.33333334, w: 0.33333334}
      m_PreInfinity: 2
      m_PostInfinity: 2
      m_RotationOrder: 4
    path: Armature.002/Principal/Cintura/Espina1/Espina2/Brazo.R
  m_CompressedRotationCurves: []
  m_EulerCurves: []
  m_PositionCurves:
  - curve:
      serializedVersion: 2
      m_Curve:
      - serializedVersion: 3
        time: 0.375
        value: {x: 0.000030333038, y: 0.025824549, z: -9.818809e-11}
        inSlope: {x: 2.1684049e-19, y: 0.008391497, z: -8.271808e-25}
        outSlope: {x: 2.1684049e-19, y: 0.008391497, z: -8.271808e-25}
        tangentMode: 0
        weightedMode: 0
        inWeight: {x: 0.33333334, y: 0.33333334, z: 0.33333334}
        outWeight: {x: 0.33333334, y: 0.33333334, z: 0.33333334}
      - serializedVersion: 3
        time: 0.41666666
        value: {x: 0.000030333038, y: 0.026174195, z: -9.818809e-11}
        inSlope: {x: 9.293164e-20, y: 0.008391497, z: -3.5450608e-25}
        outSlope: {x: 2.1684033e-19, y: 0.02277682, z: -8.271802e-25}
        tangentMode: 0
        weightedMode: 0
        inWeight: {x: 0.33333334, y: 0.33333334, z: 0.33333334}
        outWeight: {x: 0.33333334, y: 0.33333334, z: 0.33333334}
      - serializedVersion: 3
        time: 0.5
        value: {x: 0.000030333038, y: 0.02852181, z: -9.818809e-11}
        inSlope: {x: 9.293164e-20, y: 0.033565927, z: -3.5450608e-25}
        outSlope: {x: 2.1684033e-19, y: 0.040758573, z: -8.271802e-25}
        tangentMode: 0
        weightedMode: 0
        inWeight: {x: 0.33333334, y: 0.33333334, z: 0.33333334}
        outWeight: {x: 0.33333334, y: 0.33333334, z: 0.33333334}
      - serializedVersion: 3
        time: 0.7083333
        value: {x: 0.000030333038, y: 0.03701318, z: -9.818809e-11}
        inSlope: {x: 9.2931706e-20, y: 0.033565894, z: -3.5450633e-25}
        outSlope: {x: 2.1684033e-19, y: 0.022776878, z: -8.271802e-25}
        tangentMode: 0
        weightedMode: 0
        inWeight: {x: 0.33333334, y: 0.33333334, z: 0.33333334}
        outWeight: {x: 0.33333334, y: 0.33333334, z: 0.33333334}
      - serializedVersion: 3
        time: 0.7916667
        value: {x: 0.000030333038, y: 0.03831186, z: -9.818809e-11}
        inSlope: {x: 9.293157e-20, y: 0.008391433, z: -3.545058e-25}
        outSlope: {x: 2.1684064e-19, y: -0.0083914455, z: -8.271814e-25}
        tangentMode: 0
        weightedMode: 0
        inWeight: {x: 0.33333334, y: 0.33333334, z: 0.33333334}
        outWeight: {x: 0.33333334, y: 0.33333334, z: 0.33333334}
      - serializedVersion: 3
        time: 0.875
        value: {x: 0.000030333038, y: 0.03701318, z: -9.818809e-11}
        inSlope: {x: 9.293157e-20, y: -0.022776878, z: -3.545058e-25}
        outSlope: {x: 2.1684033e-19, y: -0.033565845, z: -8.271802e-25}
        tangentMode: 0
        weightedMode: 0
        inWeight: {x: 0.33333334, y: 0.33333334, z: 0.33333334}
        outWeight: {x: 0.33333334, y: 0.33333334, z: 0.33333334}
      - serializedVersion: 3
        time: 1.125
        value: {x: 0.000030333038, y: 0.02712323, z: -9.818809e-11}
        inSlope: {x: 9.2931706e-20, y: -0.033565953, z: -3.5450633e-25}
        outSlope: {x: 2.1684064e-19, y: -0.022776853, z: -8.271814e-25}
        tangentMode: 0
        weightedMode: 0
        inWeight: {x: 0.33333334, y: 0.33333334, z: 0.33333334}
        outWeight: {x: 0.33333334, y: 0.33333334, z: 0.33333334}
      - serializedVersion: 3
        time: 1.1666666
        value: {x: 0.000030333038, y: 0.026174195, z: -9.818809e-11}
        inSlope: {x: 9.2931706e-20, y: -0.022776853, z: -3.5450633e-25}
        outSlope: {x: 2.1684002e-19, y: -0.008391478, z: -8.2717903e-25}
        tangentMode: 0
        weightedMode: 0
        inWeight: {x: 0.33333334, y: 0.33333334, z: 0.33333334}
        outWeight: {x: 0.33333334, y: 0.33333334, z: 0.33333334}
      - serializedVersion: 3
        time: 1.2083334
        value: {x: 0.000030333038, y: 0.025824549, z: -9.818809e-11}
        inSlope: {x: 9.293144e-20, y: -0.008391478, z: -3.5450531e-25}
        outSlope: {x: 9.293144e-20, y: -0.008391478, z: -3.5450531e-25}
        tangentMode: 0
        weightedMode: 0
        inWeight: {x: 0.33333334, y: 0.33333334, z: 0.33333334}
        outWeight: {x: 0.33333334, y: 0.33333334, z: 0.33333334}
      m_PreInfinity: 2
      m_PostInfinity: 2
      m_RotationOrder: 4
    path: Armature.002/Principal/Cintura
  m_ScaleCurves: []
  m_FloatCurves: []
  m_PPtrCurves: []
  m_SampleRate: 24
  m_WrapMode: 0
  m_Bounds:
    m_Center: {x: 0, y: 0, z: 0}
    m_Extent: {x: 0, y: 0, z: 0}
  m_ClipBindingConstant:
    genericBindings: []
    pptrCurveMapping: []
  m_AnimationClipSettings:
    serializedVersion: 2
    m_AdditiveReferencePoseClip: {fileID: 0}
    m_AdditiveReferencePoseTime: 0
    m_StartTime: 0
    m_StopTime: 1.625
    m_OrientationOffsetY: 0
    m_Level: 0
    m_CycleOffset: 0
    m_HasAdditiveReferencePose: 0
    m_LoopTime: 0
    m_LoopBlend: 0
    m_LoopBlendOrientation: 0
    m_LoopBlendPositionY: 0
    m_LoopBlendPositionXZ: 0
    m_KeepOriginalOrientation: 0
    m_KeepOriginalPositionY: 1
    m_KeepOriginalPositionXZ: 0
    m_HeightFromFeet: 0
    m_Mirror: 0
  m_EditorCurves: []
  m_EulerEditorCurves: []
  m_HasGenericRootTransform: 0
  m_HasMotionFloatCurves: 0
  m_Events: []
