%YAML 1.1
%TAG !u! tag:unity3d.com,2011:
--- !u!74 &7400000
AnimationClip:
  m_ObjectHideFlags: 0
  m_CorrespondingSourceObject: {fileID: 0}
  m_PrefabInstance: {fileID: 0}
  m_PrefabAsset: {fileID: 0}
  m_Name: Armature.002_Died
  serializedVersion: 6
  m_Legacy: 0
  m_Compressed: 0
  m_UseHighQualityCurve: 1
  m_RotationCurves:
  - curve:
      serializedVersion: 2
      m_Curve:
      - serializedVersion: 3
        time: 0
        value: {x: 1.4214197e-14, y: -0.021490555, z: -2.228177e-16, w: 0.9997691}
        inSlope: {x: -0.0011271655, y: 0, z: 0.000024343319, w: 0}
        outSlope: {x: -0.0011271655, y: 0, z: 0.000024343319, w: 0}
        tangentMode: 0
        weightedMode: 0
        inWeight: {x: 0.33333334, y: 0.33333334, z: 0.33333334, w: 0.33333334}
        outWeight: {x: 0.33333334, y: 0.33333334, z: 0.33333334, w: 0.33333334}
      - serializedVersion: 3
        time: 0.5
        value: {x: -0.0825179, y: -0.021467604, z: 0.0017779588, w: 0.9963568}
        inSlope: {x: -0.45611924, y: 0.00081890065, z: 0.009827709, w: -0.038010113}
        outSlope: {x: -0.45611924, y: 0.00081890065, z: 0.009827709, w: -0.038010113}
        tangentMode: 0
        weightedMode: 0
        inWeight: {x: 0.33333334, y: 0.33333334, z: 0.33333334, w: 0.33333334}
        outWeight: {x: 0.33333334, y: 0.33333334, z: 0.33333334, w: 0.33333334}
      - serializedVersion: 3
        time: 0.7916667
        value: {x: -0.17976145, y: -0.02119004, z: 0.0038732006, w: 0.9834744}
        inSlope: {x: -0.07259806, y: 0.00028346464, z: 0.0015641742, w: -0.0131535465}
        outSlope: {x: -0.07259806, y: 0.00028346464, z: 0.0015641742, w: -0.0131535465}
        tangentMode: 0
        weightedMode: 0
        inWeight: {x: 0.33333334, y: 0.33333334, z: 0.33333334, w: 0.33333334}
        outWeight: {x: 0.33333334, y: 0.33333334, z: 0.33333334, w: 0.33333334}
      m_PreInfinity: 2
      m_PostInfinity: 2
      m_RotationOrder: 4
    path: Armature.002/Principal/Cintura/Espina1
  - curve:
      serializedVersion: 2
      m_Curve:
      - serializedVersion: 3
        time: 0
        value: {x: 0.023148658, y: 0.25004917, z: -0.9585818, w: -0.13438934}
        inSlope: {x: -0.075421035, y: 0.56059456, z: 0.1559372, w: -0.028718233}
        outSlope: {x: -0.075421035, y: 0.56059456, z: 0.1559372, w: -0.028718233}
        tangentMode: 0
        weightedMode: 0
        inWeight: {x: 0.33333334, y: 0.33333334, z: 0.33333334, w: 0.33333334}
        outWeight: {x: 0.33333334, y: 0.33333334, z: 0.33333334, w: 0.33333334}
      - serializedVersion: 3
        time: 0.041666668
        value: {x: 0.020006115, y: 0.27340728, z: -0.9520844, w: -0.13558593}
        inSlope: {x: -0.13739547, y: 1.046343, z: 0.33251953, w: -0.067626}
        outSlope: {x: -0.13739547, y: 1.046343, z: 0.33251953, w: -0.067626}
        tangentMode: 0
        weightedMode: 0
        inWeight: {x: 0.33333334, y: 0.33333334, z: 0.33333334, w: 0.33333334}
        outWeight: {x: 0.33333334, y: 0.33333334, z: 0.33333334, w: 0.33333334}
      - serializedVersion: 3
        time: 0.16666667
        value: {x: -0.01739722, y: 0.54164255, z: -0.82726383, w: -0.14817323}
        inSlope: {x: -0.39588985, y: 2.6200204, z: 1.7511868, w: -0.055839293}
        outSlope: {x: -0.39588985, y: 2.6200204, z: 1.7511868, w: -0.055839293}
        tangentMode: 0
        weightedMode: 0
        inWeight: {x: 0.33333334, y: 0.33333334, z: 0.33333334, w: 0.33333334}
        outWeight: {x: 0.33333334, y: 0.33333334, z: 0.33333334, w: 0.33333334}
      - serializedVersion: 3
        time: 0.20833334
        value: {x: -0.034300413, y: 0.64976054, z: -0.74454767, w: -0.14927678}
        inSlope: {x: -0.38534465, y: 2.3769975, z: 2.0718064, w: 0.0048292335}
        outSlope: {x: -0.38534465, y: 2.3769975, z: 2.0718064, w: 0.0048292335}
        tangentMode: 0
        weightedMode: 0
        inWeight: {x: 0.33333334, y: 0.33333334, z: 0.33333334, w: 0.33333334}
        outWeight: {x: 0.33333334, y: 0.33333334, z: 0.33333334, w: 0.33333334}
      - serializedVersion: 3
        time: 0.33333334
        value: {x: -0.06852536, y: 0.840776, z: -0.51792043, w: -0.14198004}
        inSlope: {x: -0.118706375, y: 0.59689176, z: 0.925141, w: 0.04772992}
        outSlope: {x: -0.118706375, y: 0.59689176, z: 0.925141, w: 0.04772992}
        tangentMode: 0
        weightedMode: 0
        inWeight: {x: 0.33333334, y: 0.33333334, z: 0.33333334, w: 0.33333334}
        outWeight: {x: 0.33333334, y: 0.33333334, z: 0.33333334, w: 0.33333334}
      - serializedVersion: 3
        time: 0.375
        value: {x: -0.07109157, y: 0.85326725, z: -0.4970456, w: -0.1408072}
        inSlope: {x: -0.061589077, y: 0.2997895, z: 0.500996, w: 0.028148182}
        outSlope: {x: -0.061589077, y: 0.2997895, z: 0.500996, w: 0.028148182}
        tangentMode: 0
        weightedMode: 0
        inWeight: {x: 0.33333334, y: 0.33333334, z: 0.33333334, w: 0.33333334}
        outWeight: {x: 0.33333334, y: 0.33333334, z: 0.33333334, w: 0.33333334}
      m_PreInfinity: 2
      m_PostInfinity: 2
      m_RotationOrder: 4
    path: Armature.002/Principal/Cintura/Espina1/Espina2/Brazo.L
  - curve:
      serializedVersion: 2
      m_Curve:
      - serializedVersion: 3
        time: 0
        value: {x: 0.08756093, y: 0.2639116, z: -0.95482, w: 0.10489325}
        inSlope: {x: 0.052430928, y: 0.4308107, z: 0.12192106, w: -0.058915615}
        outSlope: {x: 0.052430928, y: 0.4308107, z: 0.12192106, w: -0.058915615}
        tangentMode: 0
        weightedMode: 0
        inWeight: {x: 0.33333334, y: 0.33333334, z: 0.33333334, w: 0.33333334}
        outWeight: {x: 0.33333334, y: 0.33333334, z: 0.33333334, w: 0.33333334}
      - serializedVersion: 3
        time: 0.041666668
        value: {x: 0.08974555, y: 0.28186205, z: -0.94973993, w: 0.102438435}
        inSlope: {x: 0.09581405, y: 0.7972673, z: 0.24820948, w: -0.11212313}
        outSlope: {x: 0.09581405, y: 0.7972673, z: 0.24820948, w: -0.11212313}
        tangentMode: 0
        weightedMode: 0
        inWeight: {x: 0.33333334, y: 0.33333334, z: 0.33333334, w: 0.33333334}
        outWeight: {x: 0.33333334, y: 0.33333334, z: 0.33333334, w: 0.33333334}
      - serializedVersion: 3
        time: 0.16666667
        value: {x: 0.112769164, y: 0.48319092, z: -0.8653023, w: 0.071144715}
        inSlope: {x: 0.21144405, y: 1.9818829, z: 1.1134714, w: -0.34671125}
        outSlope: {x: 0.21144405, y: 1.9818829, z: 1.1134714, w: -0.34671125}
        tangentMode: 0
        weightedMode: 0
        inWeight: {x: 0.33333334, y: 0.33333334, z: 0.33333334, w: 0.33333334}
        outWeight: {x: 0.33333334, y: 0.33333334, z: 0.33333334, w: 0.33333334}
      - serializedVersion: 3
        time: 0.25
        value: {x: 0.12828237, y: 0.6389034, z: -0.757401, w: 0.04110813}
        inSlope: {x: 0.14229476, y: 1.5454894, z: 1.2877814, w: -0.32781315}
        outSlope: {x: 0.14229476, y: 1.5454894, z: 1.2877814, w: -0.32781315}
        tangentMode: 0
        weightedMode: 0
        inWeight: {x: 0.33333334, y: 0.33333334, z: 0.33333334, w: 0.33333334}
        outWeight: {x: 0.33333334, y: 0.33333334, z: 0.33333334, w: 0.33333334}
      - serializedVersion: 3
        time: 0.33333334
        value: {x: 0.13602617, y: 0.73005015, z: -0.6694166, w: 0.020126713}
        inSlope: {x: 0.045598816, y: 0.5722004, z: 0.6083366, w: -0.13938527}
        outSlope: {x: 0.045598816, y: 0.5722004, z: 0.6083366, w: -0.13938527}
        tangentMode: 0
        weightedMode: 0
        inWeight: {x: 0.33333334, y: 0.33333334, z: 0.33333334, w: 0.33333334}
        outWeight: {x: 0.33333334, y: 0.33333334, z: 0.33333334, w: 0.33333334}
      - serializedVersion: 3
        time: 0.375
        value: {x: 0.13697824, y: 0.7424763, z: -0.6554975, w: 0.017002769}
        inSlope: {x: 0.022849565, y: 0.29822737, z: 0.33405885, w: -0.074974686}
        outSlope: {x: 0.022849565, y: 0.29822737, z: 0.33405885, w: -0.074974686}
        tangentMode: 0
        weightedMode: 0
        inWeight: {x: 0.33333334, y: 0.33333334, z: 0.33333334, w: 0.33333334}
        outWeight: {x: 0.33333334, y: 0.33333334, z: 0.33333334, w: 0.33333334}
      m_PreInfinity: 2
      m_PostInfinity: 2
      m_RotationOrder: 4
    path: Armature.002/Principal/Cintura/Espina1/Espina2/Brazo.R
  m_CompressedRotationCurves: []
  m_EulerCurves: []
  m_PositionCurves:
  - curve:
      serializedVersion: 2
      m_Curve:
      - serializedVersion: 3
        time: 0
        value: {x: -0.009857872, y: 0.0051972675, z: 0.001070676}
        inSlope: {x: -0.009610934, y: -0.030305436, z: 0.000414353}
        outSlope: {x: -0.009610934, y: -0.030305436, z: 0.000414353}
        tangentMode: 0
        weightedMode: 0
        inWeight: {x: 0.33333334, y: 0.33333334, z: 0.33333334}
        outWeight: {x: 0.33333334, y: 0.33333334, z: 0.33333334}
      - serializedVersion: 3
        time: 0.041666668
        value: {x: -0.010258327, y: 0.003934541, z: 0.0010879406}
        inSlope: {x: -0.009610934, y: -0.030305436, z: 0.000414353}
        outSlope: {x: -0.025757274, y: -0.08121848, z: 0.0011104649}
        tangentMode: 0
        weightedMode: 0
        inWeight: {x: 0.33333334, y: 0.33333334, z: 0.33333334}
        outWeight: {x: 0.33333334, y: 0.33333334, z: 0.33333334}
      - serializedVersion: 3
        time: 0.083333336
        value: {x: -0.011331547, y: 0.0005504376, z: 0.00113421}
        inSlope: {x: -0.025757274, y: -0.08121848, z: 0.0011104649}
        outSlope: {x: -0.03729046, y: -0.11758529, z: 0.0016077019}
        tangentMode: 0
        weightedMode: 0
        inWeight: {x: 0.33333334, y: 0.33333334, z: 0.33333334}
        outWeight: {x: 0.33333334, y: 0.33333334, z: 0.33333334}
      - serializedVersion: 3
        time: 0.125
        value: {x: -0.012885316, y: -0.004348949, z: 0.0012011976}
        inSlope: {x: -0.03729046, y: -0.11758529, z: 0.0016077019}
        outSlope: {x: -0.044210266, y: -0.13940467, z: 0.0019060024}
        tangentMode: 0
        weightedMode: 0
        inWeight: {x: 0.33333334, y: 0.33333334, z: 0.33333334}
        outWeight: {x: 0.33333334, y: 0.33333334, z: 0.33333334}
      - serializedVersion: 3
        time: 0.16666667
        value: {x: -0.014727411, y: -0.010157478, z: 0.0012806144}
        inSlope: {x: -0.044210266, y: -0.13940467, z: 0.0019060024}
        outSlope: {x: -0.046517007, y: -0.1466787, z: 0.002005445}
        tangentMode: 0
        weightedMode: 0
        inWeight: {x: 0.33333334, y: 0.33333334, z: 0.33333334}
        outWeight: {x: 0.33333334, y: 0.33333334, z: 0.33333334}
      - serializedVersion: 3
        time: 0.25
        value: {x: -0.018507712, y: -0.02207762, z: 0.0014435962}
        inSlope: {x: -0.04421021, y: -0.13940473, z: 0.0019061168}
        outSlope: {x: -0.03729047, y: -0.117585324, z: 0.0016076664}
        tangentMode: 0
        weightedMode: 0
        inWeight: {x: 0.33333334, y: 0.33333334, z: 0.33333334}
        outWeight: {x: 0.33333334, y: 0.33333334, z: 0.33333334}
      - serializedVersion: 3
        time: 0.29166666
        value: {x: -0.02006148, y: -0.026977006, z: 0.0015105823}
        inSlope: {x: -0.03729047, y: -0.117585324, z: 0.0016076664}
        outSlope: {x: -0.02575732, y: -0.08121839, z: 0.0011104483}
        tangentMode: 0
        weightedMode: 0
        inWeight: {x: 0.33333334, y: 0.33333334, z: 0.33333334}
        outWeight: {x: 0.33333334, y: 0.33333334, z: 0.33333334}
      - serializedVersion: 3
        time: 0.33333334
        value: {x: -0.021134702, y: -0.030361108, z: 0.001556851}
        inSlope: {x: -0.02575732, y: -0.08121839, z: 0.0011104483}
        outSlope: {x: -0.009610922, y: -0.030305564, z: 0.00041431913}
        tangentMode: 0
        weightedMode: 0
        inWeight: {x: 0.33333334, y: 0.33333334, z: 0.33333334}
        outWeight: {x: 0.33333334, y: 0.33333334, z: 0.33333334}
      - serializedVersion: 3
        time: 0.375
        value: {x: -0.021535158, y: -0.03162384, z: 0.0015741142}
        inSlope: {x: -0.009610922, y: -0.030305564, z: 0.00041431913}
        outSlope: {x: -0.009610922, y: -0.030305564, z: 0.00041431913}
        tangentMode: 0
        weightedMode: 0
        inWeight: {x: 0.33333334, y: 0.33333334, z: 0.33333334}
        outWeight: {x: 0.33333334, y: 0.33333334, z: 0.33333334}
      m_PreInfinity: 2
      m_PostInfinity: 2
      m_RotationOrder: 4
    path: Armature.002/Principal/Cintura/Espina1/Espina2/Brazo.L
  - curve:
      serializedVersion: 2
      m_Curve:
      - serializedVersion: 3
        time: 0
        value: {x: 0.009797202, y: 0.005197268, z: 0.0010706751}
        inSlope: {x: 0.008011308, y: -0.027115252, z: -0.00034538805}
        outSlope: {x: 0.008011308, y: -0.027115252, z: -0.00034538805}
        tangentMode: 0
        weightedMode: 0
        inWeight: {x: 0.33333334, y: 0.33333334, z: 0.33333334}
        outWeight: {x: 0.33333334, y: 0.33333334, z: 0.33333334}
      - serializedVersion: 3
        time: 0.041666668
        value: {x: 0.010131007, y: 0.0040674657, z: 0.001056284}
        inSlope: {x: 0.008011308, y: -0.027115252, z: -0.00034538805}
        outSlope: {x: 0.021470346, y: -0.07266879, z: -0.0009256464}
        tangentMode: 0
        weightedMode: 0
        inWeight: {x: 0.33333334, y: 0.33333334, z: 0.33333334}
        outWeight: {x: 0.33333334, y: 0.33333334, z: 0.33333334}
      - serializedVersion: 3
        time: 0.083333336
        value: {x: 0.011025605, y: 0.0010395993, z: 0.0010177153}
        inSlope: {x: 0.021470346, y: -0.07266879, z: -0.0009256464}
        outSlope: {x: 0.031083928, y: -0.10520726, z: -0.0013401015}
        tangentMode: 0
        weightedMode: 0
        inWeight: {x: 0.33333334, y: 0.33333334, z: 0.33333334}
        outWeight: {x: 0.33333334, y: 0.33333334, z: 0.33333334}
      - serializedVersion: 3
        time: 0.125
        value: {x: 0.012320769, y: -0.0033440362, z: 0.00096187775}
        inSlope: {x: 0.031083928, y: -0.10520726, z: -0.0013401015}
        outSlope: {x: 0.036852058, y: -0.12472971, z: -0.0015888099}
        tangentMode: 0
        weightedMode: 0
        inWeight: {x: 0.33333334, y: 0.33333334, z: 0.33333334}
        outWeight: {x: 0.33333334, y: 0.33333334, z: 0.33333334}
      - serializedVersion: 3
        time: 0.16666667
        value: {x: 0.013856271, y: -0.008541108, z: 0.0008956773}
        inSlope: {x: 0.036852058, y: -0.12472971, z: -0.0015888099}
        outSlope: {x: 0.038774822, y: -0.13123792, z: -0.0016716514}
        tangentMode: 0
        weightedMode: 0
        inWeight: {x: 0.33333334, y: 0.33333334, z: 0.33333334}
        outWeight: {x: 0.33333334, y: 0.33333334, z: 0.33333334}
      - serializedVersion: 3
        time: 0.25
        value: {x: 0.017007392, y: -0.019206434, z: 0.00075982366}
        inSlope: {x: 0.036852058, y: -0.12472994, z: -0.0015888368}
        outSlope: {x: 0.031083904, y: -0.10520717, z: -0.0013400766}
        tangentMode: 0
        weightedMode: 0
        inWeight: {x: 0.33333334, y: 0.33333334, z: 0.33333334}
        outWeight: {x: 0.33333334, y: 0.33333334, z: 0.33333334}
      - serializedVersion: 3
        time: 0.29166666
        value: {x: 0.018302554, y: -0.023590066, z: 0.00070398714}
        inSlope: {x: 0.031083904, y: -0.10520717, z: -0.0013400766}
        outSlope: {x: 0.021470308, y: -0.072668575, z: -0.00092561916}
        tangentMode: 0
        weightedMode: 0
        inWeight: {x: 0.33333334, y: 0.33333334, z: 0.33333334}
        outWeight: {x: 0.33333334, y: 0.33333334, z: 0.33333334}
      - serializedVersion: 3
        time: 0.33333334
        value: {x: 0.01919715, y: -0.026617924, z: 0.0006654197}
        inSlope: {x: 0.021470308, y: -0.072668575, z: -0.00092561916}
        outSlope: {x: 0.008011352, y: -0.027115352, z: -0.00034541675}
        tangentMode: 0
        weightedMode: 0
        inWeight: {x: 0.33333334, y: 0.33333334, z: 0.33333334}
        outWeight: {x: 0.33333334, y: 0.33333334, z: 0.33333334}
      - serializedVersion: 3
        time: 0.375
        value: {x: 0.019530956, y: -0.02774773, z: 0.0006510273}
        inSlope: {x: 0.008011352, y: -0.027115352, z: -0.00034541675}
        outSlope: {x: 0.008011352, y: -0.027115352, z: -0.00034541675}
        tangentMode: 0
        weightedMode: 0
        inWeight: {x: 0.33333334, y: 0.33333334, z: 0.33333334}
        outWeight: {x: 0.33333334, y: 0.33333334, z: 0.33333334}
      m_PreInfinity: 2
      m_PostInfinity: 2
      m_RotationOrder: 4
    path: Armature.002/Principal/Cintura/Espina1/Espina2/Brazo.R
  - curve:
      serializedVersion: 2
      m_Curve:
      - serializedVersion: 3
        time: 0
        value: {x: -0.0054209116, y: 0.0032990098, z: 0.0000000017267773}
        inSlope: {x: -1.110223e-16, y: -0.0024215698, z: 2.646978e-23}
        outSlope: {x: -1.110223e-16, y: -0.0024215698, z: 2.646978e-23}
        tangentMode: 0
        weightedMode: 0
        inWeight: {x: 0.33333334, y: 0.33333334, z: 0.33333334}
        outWeight: {x: 0.33333334, y: 0.33333334, z: 0.33333334}
      - serializedVersion: 3
        time: 0.041666668
        value: {x: -0.0054209116, y: 0.003198111, z: 0.0000000017267773}
        inSlope: {x: -4.7580987e-17, y: -0.0024215698, z: 1.1344191e-23}
        outSlope: {x: -1.110223e-16, y: -0.006489887, z: 2.646978e-23}
        tangentMode: 0
        weightedMode: 0
        inWeight: {x: 0.33333334, y: 0.33333334, z: 0.33333334}
        outWeight: {x: 0.33333334, y: 0.33333334, z: 0.33333334}
      - serializedVersion: 3
        time: 0.083333336
        value: {x: -0.0054209116, y: 0.0029276991, z: 0.0000000017267773}
        inSlope: {x: -4.7580987e-17, y: -0.006489887, z: 1.1344191e-23}
        outSlope: {x: -1.110223e-16, y: -0.009395772, z: 2.646978e-23}
        tangentMode: 0
        weightedMode: 0
        inWeight: {x: 0.33333334, y: 0.33333334, z: 0.33333334}
        outWeight: {x: 0.33333334, y: 0.33333334, z: 0.33333334}
      - serializedVersion: 3
        time: 0.125
        value: {x: -0.0054209116, y: 0.0025362086, z: 0.0000000017267773}
        inSlope: {x: -4.758099e-17, y: -0.009395772, z: 1.1344192e-23}
        outSlope: {x: -1.1102229e-16, y: -0.011139334, z: 2.6469776e-23}
        tangentMode: 0
        weightedMode: 0
        inWeight: {x: 0.33333334, y: 0.33333334, z: 0.33333334}
        outWeight: {x: 0.33333334, y: 0.33333334, z: 0.33333334}
      - serializedVersion: 3
        time: 0.25
        value: {x: -0.0054209116, y: 0.0011195755, z: 0.0000000017267773}
        inSlope: {x: -4.758098e-17, y: -0.011139334, z: 1.134419e-23}
        outSlope: {x: -1.1102233e-16, y: -0.00939583, z: 2.6469786e-23}
        tangentMode: 0
        weightedMode: 0
        inWeight: {x: 0.33333334, y: 0.33333334, z: 0.33333334}
        outWeight: {x: 0.33333334, y: 0.33333334, z: 0.33333334}
      - serializedVersion: 3
        time: 0.29166666
        value: {x: -0.0054209116, y: 0.00072808267, z: 0.0000000017267773}
        inSlope: {x: -4.7581e-17, y: -0.00939583, z: 1.13441945e-23}
        outSlope: {x: -1.1102225e-16, y: -0.0064898273, z: 2.6469767e-23}
        tangentMode: 0
        weightedMode: 0
        inWeight: {x: 0.33333334, y: 0.33333334, z: 0.33333334}
        outWeight: {x: 0.33333334, y: 0.33333334, z: 0.33333334}
      - serializedVersion: 3
        time: 0.33333334
        value: {x: -0.0054209116, y: 0.000457673, z: 0.0000000017267773}
        inSlope: {x: -4.7580964e-17, y: -0.0064898273, z: 1.1344186e-23}
        outSlope: {x: -1.1102233e-16, y: -0.0024216275, z: 2.6469786e-23}
        tangentMode: 0
        weightedMode: 0
        inWeight: {x: 0.33333334, y: 0.33333334, z: 0.33333334}
        outWeight: {x: 0.33333334, y: 0.33333334, z: 0.33333334}
      - serializedVersion: 3
        time: 0.375
        value: {x: -0.0054209116, y: 0.0003567719, z: 0.0000000017267773}
        inSlope: {x: -4.7581e-17, y: -0.0024216275, z: 1.13441945e-23}
        outSlope: {x: -4.7581e-17, y: -0.0024216275, z: 1.13441945e-23}
        tangentMode: 0
        weightedMode: 0
        inWeight: {x: 0.33333334, y: 0.33333334, z: 0.33333334}
        outWeight: {x: 0.33333334, y: 0.33333334, z: 0.33333334}
      m_PreInfinity: 2
      m_PostInfinity: 2
      m_RotationOrder: 4
    path: Armature.002/Principal/Cintura/Pierna.L
  m_ScaleCurves: []
  m_FloatCurves: []
  m_PPtrCurves: []
  m_SampleRate: 24
  m_WrapMode: 0
  m_Bounds:
    m_Center: {x: 0, y: 0, z: 0}
    m_Extent: {x: 0, y: 0, z: 0}
  m_ClipBindingConstant:
    genericBindings: []
    pptrCurveMapping: []
  m_AnimationClipSettings:
    serializedVersion: 2
    m_AdditiveReferencePoseClip: {fileID: 0}
    m_AdditiveReferencePoseTime: 0
    m_StartTime: 0
    m_StopTime: 0.7916667
    m_OrientationOffsetY: 0
    m_Level: 0
    m_CycleOffset: 0
    m_HasAdditiveReferencePose: 0
    m_LoopTime: 0
    m_LoopBlend: 0
    m_LoopBlendOrientation: 0
    m_LoopBlendPositionY: 0
    m_LoopBlendPositionXZ: 0
    m_KeepOriginalOrientation: 0
    m_KeepOriginalPositionY: 1
    m_KeepOriginalPositionXZ: 0
    m_HeightFromFeet: 0
    m_Mirror: 0
  m_EditorCurves: []
  m_EulerEditorCurves: []
  m_HasGenericRootTransform: 0
  m_HasMotionFloatCurves: 0
  m_Events: []
