%YAML 1.1
%TAG !u! tag:unity3d.com,2011:
--- !u!74 &7400000
AnimationClip:
  m_ObjectHideFlags: 0
  m_CorrespondingSourceObject: {fileID: 0}
  m_PrefabInstance: {fileID: 0}
  m_PrefabAsset: {fileID: 0}
  m_Name: Armature.002_Run
  serializedVersion: 6
  m_Legacy: 0
  m_Compressed: 0
  m_UseHighQualityCurve: 1
  m_RotationCurves:
  - curve:
      serializedVersion: 2
      m_Curve:
      - serializedVersion: 3
        time: 0
        value: {x: 0.013949018, y: -4.726111e-23, z: -3.3875482e-21, w: 0.99982774}
        inSlope: {x: 0.3349509, y: -1.1348578e-21, z: 2.0237657e-23, w: -0.005973102}
        outSlope: {x: 0.3349509, y: -1.1348578e-21, z: 2.0237657e-23, w: -0.005973102}
        tangentMode: 0
        weightedMode: 0
        inWeight: {x: 0.33333334, y: 0.33333334, z: 0.33333334, w: 0.33333334}
        outWeight: {x: 0.33333334, y: 0.33333334, z: 0.33333334, w: 0.33333334}
      - serializedVersion: 3
        time: 0.29166675
        value: {x: 0.11152435, y: -3.778592e-22, z: -3.3669957e-21, w: 0.9937617}
        inSlope: {x: 0.3327122, y: -1.1272728e-21, z: 1.2649781e-22, w: -0.037335563}
        outSlope: {x: 0.3327122, y: -1.1272728e-21, z: 1.2649781e-22, w: -0.037335563}
        tangentMode: 0
        weightedMode: 0
        inWeight: {x: 0.33333334, y: 0.33333334, z: 0.33333334, w: 0.33333334}
        outWeight: {x: 0.33333334, y: 0.33333334, z: 0.33333334, w: 0.33333334}
      - serializedVersion: 3
        time: 0.54166675
        value: {x: 0.12536706, y: -4.247601e-22, z: -3.3614009e-21, w: 0.99211043}
        inSlope: {x: 0, y: 0, z: 0, w: 0}
        outSlope: {x: 0, y: 0, z: 0, w: 0}
        tangentMode: 0
        weightedMode: 0
        inWeight: {x: 0.33333334, y: 0.33333334, z: 0.33333334, w: 0.33333334}
        outWeight: {x: 0.33333334, y: 0.33333334, z: 0.33333334, w: 0.33333334}
      - serializedVersion: 3
        time: 2.625
        value: {x: 0.12536706, y: -4.247601e-22, z: -3.3614009e-21, w: 0.99211043}
        inSlope: {x: 0, y: 0, z: 0, w: 0}
        outSlope: {x: 0, y: 0, z: 0, w: 0}
        tangentMode: 0
        weightedMode: 0
        inWeight: {x: 0.33333334, y: 0.33333334, z: 0.33333334, w: 0.33333334}
        outWeight: {x: 0.33333334, y: 0.33333334, z: 0.33333334, w: 0.33333334}
      - serializedVersion: 3
        time: 2.875
        value: {x: 0.11851546, y: -4.01546e-22, z: -3.3642997e-21, w: 0.992966}
        inSlope: {x: -0.071340755, y: 2.4171188e-22, z: -2.818027e-23, w: 0.008317348}
        outSlope: {x: -0.071340755, y: 2.4171188e-22, z: -2.818027e-23, w: 0.008317348}
        tangentMode: 0
        weightedMode: 0
        inWeight: {x: 0.33333334, y: 0.33333334, z: 0.33333334, w: 0.33333334}
        outWeight: {x: 0.33333334, y: 0.33333334, z: 0.33333334, w: 0.33333334}
      m_PreInfinity: 2
      m_PostInfinity: 2
      m_RotationOrder: 4
    path: Armature.002/Principal/Cintura/Espina1
  - curve:
      serializedVersion: 2
      m_Curve:
      - serializedVersion: 3
        time: 0
        value: {x: -0.031456843, y: -0.18835685, z: 0.9718389, w: 0.13158311}
        inSlope: {x: -0.20888546, y: 1.5002384, z: 0.28903294, w: -0.033956647}
        outSlope: {x: -0.20888546, y: 1.5002384, z: 0.28903294, w: -0.033956647}
        tangentMode: 0
        weightedMode: 0
        inWeight: {x: 0.33333334, y: 0.33333334, z: 0.33333334, w: 0.33333334}
        outWeight: {x: 0.33333334, y: 0.33333334, z: 0.33333334, w: 0.33333334}
      - serializedVersion: 3
        time: 0.08333349
        value: {x: -0.048842233, y: -0.059763037, z: 0.9888169, w: 0.12760867}
        inSlope: {x: -0.20506178, y: 1.5893097, z: 0.09532851, w: -0.07859535}
        outSlope: {x: -0.20506178, y: 1.5893097, z: 0.09532851, w: -0.07859535}
        tangentMode: 0
        weightedMode: 0
        inWeight: {x: 0.33333334, y: 0.33333334, z: 0.33333334, w: 0.33333334}
        outWeight: {x: 0.33333334, y: 0.33333334, z: 0.33333334, w: 0.33333334}
      - serializedVersion: 3
        time: 0.29166675
        value: {x: -0.08801728, y: 0.26807103, z: 0.95366055, w: 0.10451071}
        inSlope: {x: -0.16085312, y: 1.466985, z: -0.4108228, w: -0.13520014}
        outSlope: {x: -0.16085312, y: 1.466985, z: -0.4108228, w: -0.13520014}
        tangentMode: 0
        weightedMode: 0
        inWeight: {x: 0.33333334, y: 0.33333334, z: 0.33333334, w: 0.33333334}
        outWeight: {x: 0.33333334, y: 0.33333334, z: 0.33333334, w: 0.33333334}
      - serializedVersion: 3
        time: 0.3333335
        value: {x: -0.09443692, y: 0.32771707, z: 0.9348433, w: 0.09874814}
        inSlope: {x: -0.003033325, y: 0.027695, z: -0.00782077, w: -0.0025609434}
        outSlope: {x: -0.003033325, y: 0.027695, z: -0.00782077, w: -0.0025609434}
        tangentMode: 0
        weightedMode: 0
        inWeight: {x: 0.33333334, y: 0.33333334, z: 0.33333334, w: 0.33333334}
        outWeight: {x: 0.33333334, y: 0.33333334, z: 0.33333334, w: 0.33333334}
      - serializedVersion: 3
        time: 0.375
        value: {x: -0.08827009, y: 0.27037928, z: 0.9530087, w: 0.104297265}
        inSlope: {x: 0.1545558, y: -1.4114467, z: 0.39890933, w: 0.13053913}
        outSlope: {x: 0.1545558, y: -1.4114467, z: 0.39890933, w: 0.13053913}
        tangentMode: 0
        weightedMode: 0
        inWeight: {x: 0.33333334, y: 0.33333334, z: 0.33333334, w: 0.33333334}
        outWeight: {x: 0.33333334, y: 0.33333334, z: 0.33333334, w: 0.33333334}
      - serializedVersion: 3
        time: 0.625
        value: {x: -0.041987576, y: -0.1122589, z: 0.98424, w: 0.13002539}
        inSlope: {x: 0.2063387, y: -1.5326736, z: -0.17085254, w: 0.043151107}
        outSlope: {x: 0.2063387, y: -1.5326736, z: -0.17085254, w: 0.043151107}
        tangentMode: 0
        weightedMode: 0
        inWeight: {x: 0.33333334, y: 0.33333334, z: 0.33333334, w: 0.33333334}
        outWeight: {x: 0.33333334, y: 0.33333334, z: 0.33333334, w: 0.33333334}
      - serializedVersion: 3
        time: 0.7083335
        value: {x: -0.024772845, y: -0.23613212, z: 0.96230173, w: 0.13267788}
        inSlope: {x: 0.19305545, y: -1.4239562, z: -0.35193935, w: 0.0653748}
        outSlope: {x: 0.19305545, y: -1.4239562, z: -0.35193935, w: 0.0653748}
        tangentMode: 0
        weightedMode: 0
        inWeight: {x: 0.33333334, y: 0.33333334, z: 0.33333334, w: 0.33333334}
        outWeight: {x: 0.33333334, y: 0.33333334, z: 0.33333334, w: 0.33333334}
      - serializedVersion: 3
        time: 0.75
        value: {x: -0.017118797, y: -0.2940328, z: 0.9459088, w: 0.13604479}
        inSlope: {x: -0.018509895, y: 0.120609224, z: 0.02799122, w: 0.0032435842}
        outSlope: {x: -0.018509895, y: 0.120609224, z: 0.02799122, w: 0.0032435842}
        tangentMode: 0
        weightedMode: 0
        inWeight: {x: 0.33333334, y: 0.33333334, z: 0.33333334, w: 0.33333334}
        outWeight: {x: 0.33333334, y: 0.33333334, z: 0.33333334, w: 0.33333334}
      - serializedVersion: 3
        time: 0.791667
        value: {x: -0.026315436, y: -0.22608061, z: 0.96463454, w: 0.13294815}
        inSlope: {x: -0.2323136, y: 1.6854134, z: 0.39281595, w: -0.05240889}
        outSlope: {x: -0.2323136, y: 1.6854134, z: 0.39281595, w: -0.05240889}
        tangentMode: 0
        weightedMode: 0
        inWeight: {x: 0.33333334, y: 0.33333334, z: 0.33333334, w: 0.33333334}
        outWeight: {x: 0.33333334, y: 0.33333334, z: 0.33333334, w: 0.33333334}
      - serializedVersion: 3
        time: 1
        value: {x: -0.075741515, y: 0.15942845, z: 0.97770804, w: 0.11372261}
        inSlope: {x: -0.21769576, y: 1.8711152, z: -0.3041279, w: -0.14483002}
        outSlope: {x: -0.21769576, y: 1.8711152, z: -0.3041279, w: -0.14483002}
        tangentMode: 0
        weightedMode: 0
        inWeight: {x: 0.33333334, y: 0.33333334, z: 0.33333334, w: 0.33333334}
        outWeight: {x: 0.33333334, y: 0.33333334, z: 0.33333334, w: 0.33333334}
      - serializedVersion: 3
        time: 1.125
        value: {x: -0.09978517, y: 0.3792234, z: 0.9151612, w: 0.09334093}
        inSlope: {x: -0.16335173, y: 1.5997958, z: -0.65972674, w: -0.17403363}
        outSlope: {x: -0.16335173, y: 1.5997958, z: -0.65972674, w: -0.17403363}
        tangentMode: 0
        weightedMode: 0
        inWeight: {x: 0.33333334, y: 0.33333334, z: 0.33333334, w: 0.33333334}
        outWeight: {x: 0.33333334, y: 0.33333334, z: 0.33333334, w: 0.33333334}
      - serializedVersion: 3
        time: 1.166667
        value: {x: -0.10616798, y: 0.44331893, z: 0.8858887, w: 0.08601141}
        inSlope: {x: 0.010957293, y: -0.107090116, z: 0.043767124, w: 0.0116008}
        outSlope: {x: 0.010957293, y: -0.107090116, z: 0.043767124, w: 0.0116008}
        tangentMode: 0
        weightedMode: 0
        inWeight: {x: 0.33333334, y: 0.33333334, z: 0.33333334, w: 0.33333334}
        outWeight: {x: 0.33333334, y: 0.33333334, z: 0.33333334, w: 0.33333334}
      - serializedVersion: 3
        time: 1.2083335
        value: {x: -0.09887214, y: 0.3703, z: 0.9188081, w: 0.09430758}
        inSlope: {x: 0.18940929, y: -1.8421907, z: 0.73672915, w: 0.19751987}
        outSlope: {x: 0.18940929, y: -1.8421907, z: 0.73672915, w: 0.19751987}
        tangentMode: 0
        weightedMode: 0
        inWeight: {x: 0.33333334, y: 0.33333334, z: 0.33333334, w: 0.33333334}
        outWeight: {x: 0.33333334, y: 0.33333334, z: 0.33333334, w: 0.33333334}
      - serializedVersion: 3
        time: 1.375
        value: {x: -0.058497727, y: 0.016347824, z: 0.99048626, w: 0.12348166}
        inSlope: {x: 0.2831722, y: -2.2714229, z: 0.03748853, w: 0.13414943}
        outSlope: {x: 0.2831722, y: -2.2714229, z: 0.03748853, w: 0.13414943}
        tangentMode: 0
        weightedMode: 0
        inWeight: {x: 0.33333334, y: 0.33333334, z: 0.33333334, w: 0.33333334}
        outWeight: {x: 0.33333334, y: 0.33333334, z: 0.33333334, w: 0.33333334}
      - serializedVersion: 3
        time: 1.541667
        value: {x: -0.010348706, y: -0.33977792, z: 0.93052745, w: 0.13624479}
        inSlope: {x: 0.27281713, y: -1.865492, z: -0.67553306, w: 0.021455415}
        outSlope: {x: 0.27281713, y: -1.865492, z: -0.67553306, w: 0.021455415}
        tangentMode: 0
        weightedMode: 0
        inWeight: {x: 0.33333334, y: 0.33333334, z: 0.33333334, w: 0.33333334}
        outWeight: {x: 0.33333334, y: 0.33333334, z: 0.33333334, w: 0.33333334}
      - serializedVersion: 3
        time: 1.5833335
        value: {x: 0.00069207675, y: -0.41384292, z: 0.90003574, w: 0.13663547}
        inSlope: {x: 0.07617191, y: -0.51490885, z: -0.20171076, w: 0.004004732}
        outSlope: {x: 0.07617191, y: -0.51490885, z: -0.20171076, w: 0.004004732}
        tangentMode: 0
        weightedMode: 0
        inWeight: {x: 0.33333334, y: 0.33333334, z: 0.33333334, w: 0.33333334}
        outWeight: {x: 0.33333334, y: 0.33333334, z: 0.33333334, w: 0.33333334}
      - serializedVersion: 3
        time: 1.625
        value: {x: -0.00400107, y: -0.38268682, z: 0.9137183, w: 0.13657852}
        inSlope: {x: -0.11397235, y: 0.7626234, z: 0.31902355, w: -0.0033872542}
        outSlope: {x: -0.11397235, y: 0.7626234, z: 0.31902355, w: -0.0033872542}
        tangentMode: 0
        weightedMode: 0
        inWeight: {x: 0.33333334, y: 0.33333334, z: 0.33333334, w: 0.33333334}
        outWeight: {x: 0.33333334, y: 0.33333334, z: 0.33333334, w: 0.33333334}
      - serializedVersion: 3
        time: 2.125
        value: {x: -0.06362099, y: 0.057838816, z: 0.9889312, w: 0.12092198}
        inSlope: {x: -0.11184035, y: 0.9145874, z: -0.053331412, w: -0.058816608}
        outSlope: {x: -0.11184035, y: 0.9145874, z: -0.053331412, w: -0.058816608}
        tangentMode: 0
        weightedMode: 0
        inWeight: {x: 0.33333334, y: 0.33333334, z: 0.33333334, w: 0.33333334}
        outWeight: {x: 0.33333334, y: 0.33333334, z: 0.33333334, w: 0.33333334}
      - serializedVersion: 3
        time: 2.375
        value: {x: -0.08863871, y: 0.27374497, z: 0.9520472, w: 0.10398533}
        inSlope: {x: -0.08680472, y: 0.79456115, z: -0.22809671, w: -0.07392905}
        outSlope: {x: -0.08680472, y: 0.79456115, z: -0.22809671, w: -0.07392905}
        tangentMode: 0
        weightedMode: 0
        inWeight: {x: 0.33333334, y: 0.33333334, z: 0.33333334, w: 0.33333334}
        outWeight: {x: 0.33333334, y: 0.33333334, z: 0.33333334, w: 0.33333334}
      - serializedVersion: 3
        time: 2.416667
        value: {x: -0.092157744, y: 0.3062814, z: 0.94208384, w: 0.10087971}
        inSlope: {x: 0.034641698, y: -0.31473535, z: 0.08583954, w: 0.028717875}
        outSlope: {x: 0.034641698, y: -0.31473535, z: 0.08583954, w: 0.028717875}
        tangentMode: 0
        weightedMode: 0
        inWeight: {x: 0.33333334, y: 0.33333334, z: 0.33333334, w: 0.33333334}
        outWeight: {x: 0.33333334, y: 0.33333334, z: 0.33333334, w: 0.33333334}
      - serializedVersion: 3
        time: 2.4583335
        value: {x: -0.08575195, y: 0.2475175, z: 0.9592004, w: 0.10637844}
        inSlope: {x: 0.16052063, y: -1.4465535, z: 0.371634, w: 0.12911497}
        outSlope: {x: 0.16052063, y: -1.4465535, z: 0.371634, w: 0.12911497}
        tangentMode: 0
        weightedMode: 0
        inWeight: {x: 0.33333334, y: 0.33333334, z: 0.33333334, w: 0.33333334}
        outWeight: {x: 0.33333334, y: 0.33333334, z: 0.33333334, w: 0.33333334}
      - serializedVersion: 3
        time: 2.7083335
        value: {x: -0.037821583, y: -0.14357811, z: 0.980161, w: 0.13129853}
        inSlope: {x: 0.2111886, y: -1.5569973, z: -0.22533432, w: 0.047469202}
        outSlope: {x: 0.2111886, y: -1.5569973, z: -0.22533432, w: 0.047469202}
        tangentMode: 0
        weightedMode: 0
        inWeight: {x: 0.33333334, y: 0.33333334, z: 0.33333334, w: 0.33333334}
        outWeight: {x: 0.33333334, y: 0.33333334, z: 0.33333334, w: 0.33333334}
      - serializedVersion: 3
        time: 2.791667
        value: {x: -0.020542461, y: -0.26899981, z: 0.9533988, w: 0.13508442}
        inSlope: {x: 0.20090458, y: -1.4374566, z: -0.40577403, w: 0.043902203}
        outSlope: {x: 0.20090458, y: -1.4374566, z: -0.40577403, w: 0.043902203}
        tangentMode: 0
        weightedMode: 0
        inWeight: {x: 0.33333334, y: 0.33333334, z: 0.33333334, w: 0.33333334}
        outWeight: {x: 0.33333334, y: 0.33333334, z: 0.33333334, w: 0.33333334}
      - serializedVersion: 3
        time: 2.8333335
        value: {x: -0.012161072, y: -0.32736412, z: 0.93496686, w: 0.1360953}
        inSlope: {x: 0.06513554, y: -0.4492957, z: -0.13597493, w: 0.0055997586}
        outSlope: {x: 0.06513554, y: -0.4492957, z: -0.13597493, w: 0.0055997586}
        tangentMode: 0
        weightedMode: 0
        inWeight: {x: 0.33333334, y: 0.33333334, z: 0.33333334, w: 0.33333334}
        outWeight: {x: 0.33333334, y: 0.33333334, z: 0.33333334, w: 0.33333334}
      - serializedVersion: 3
        time: 2.875
        value: {x: -0.015114521, y: -0.30644098, z: 0.9420676, w: 0.13555107}
        inSlope: {x: -0.07193133, y: 0.50504434, z: 0.16469523, w: -0.011060705}
        outSlope: {x: -0.07193133, y: 0.50504434, z: 0.16469523, w: -0.011060705}
        tangentMode: 0
        weightedMode: 0
        inWeight: {x: 0.33333334, y: 0.33333334, z: 0.33333334, w: 0.33333334}
        outWeight: {x: 0.33333334, y: 0.33333334, z: 0.33333334, w: 0.33333334}
      m_PreInfinity: 2
      m_PostInfinity: 2
      m_RotationOrder: 4
    path: Armature.002/Principal/Cintura/Espina1/Espina2/Brazo.L
  - curve:
      serializedVersion: 2
      m_Curve:
      - serializedVersion: 3
        time: 0
        value: {x: -0.08878395, y: -0.26868638, z: 0.95367444, w: -0.1020228}
        inSlope: {x: -0.0073231366, y: -0.121862665, z: -0.036327668, w: -0.010519649}
        outSlope: {x: -0.0073231366, y: -0.121862665, z: -0.036327668, w: -0.010519649}
        tangentMode: 0
        weightedMode: 0
        inWeight: {x: 0.33333334, y: 0.33333334, z: 0.33333334, w: 0.33333334}
        outWeight: {x: 0.33333334, y: 0.33333334, z: 0.33333334, w: 0.33333334}
      - serializedVersion: 3
        time: 0.29166675
        value: {x: -0.09188399, y: -0.30370858, z: 0.9429171, w: -0.10112246}
        inSlope: {x: -0.0126905795, y: -0.118610635, z: -0.038211033, w: 0.0114623085}
        outSlope: {x: -0.0126905795, y: -0.118610635, z: -0.038211033, w: 0.0114623085}
        tangentMode: 0
        weightedMode: 0
        inWeight: {x: 0.33333334, y: 0.33333334, z: 0.33333334, w: 0.33333334}
        outWeight: {x: 0.33333334, y: 0.33333334, z: 0.33333334, w: 0.33333334}
      - serializedVersion: 3
        time: 0.3333335
        value: {x: -0.092410184, y: -0.3086464, z: 0.94131184, w: -0.1006473}
        inSlope: {x: 0.035604708, y: 0.32890302, z: 0.10070278, w: -0.031486157}
        outSlope: {x: 0.035604708, y: 0.32890302, z: 0.10070278, w: -0.031486157}
        tangentMode: 0
        weightedMode: 0
        inWeight: {x: 0.33333334, y: 0.33333334, z: 0.33333334, w: 0.33333334}
        outWeight: {x: 0.33333334, y: 0.33333334, z: 0.33333334, w: 0.33333334}
      - serializedVersion: 3
        time: 0.375
        value: {x: -0.08891694, y: -0.27630013, z: 0.95130897, w: -0.103746295}
        inSlope: {x: 0.08550738, y: 0.7839936, z: 0.22756386, w: -0.07326032}
        outSlope: {x: 0.08550738, y: 0.7839936, z: 0.22756386, w: -0.07326032}
        tangentMode: 0
        weightedMode: 0
        inWeight: {x: 0.33333334, y: 0.33333334, z: 0.33333334, w: 0.33333334}
        outWeight: {x: 0.33333334, y: 0.33333334, z: 0.33333334, w: 0.33333334}
      - serializedVersion: 3
        time: 0.7083335
        value: {x: -0.056977853, y: -0.0041922955, z: 0.9906124, w: -0.12418963}
        inSlope: {x: 0.102334574, y: 0.81634444, z: 0.0035891668, w: -0.04697147}
        outSlope: {x: 0.102334574, y: 0.81634444, z: 0.0035891668, w: -0.04697147}
        tangentMode: 0
        weightedMode: 0
        inWeight: {x: 0.33333334, y: 0.33333334, z: 0.33333334, w: 0.33333334}
        outWeight: {x: 0.33333334, y: 0.33333334, z: 0.33333334, w: 0.33333334}
      - serializedVersion: 3
        time: 0.75
        value: {x: -0.052700832, y: 0.029660868, z: 0.9901771, w: -0.12606409}
        inSlope: {x: -0.0048324466, y: -0.03857544, z: -0.00022536376, w: 0.0022270326}
        outSlope: {x: -0.0048324466, y: -0.03857544, z: -0.00022536376, w: 0.0022270326}
        tangentMode: 0
        weightedMode: 0
        inWeight: {x: 0.33333334, y: 0.33333334, z: 0.33333334, w: 0.33333334}
        outWeight: {x: 0.33333334, y: 0.33333334, z: 0.33333334, w: 0.33333334}
      - serializedVersion: 3
        time: 0.791667
        value: {x: -0.05738061, y: -0.007407323, z: 0.9905936, w: -0.12400402}
        inSlope: {x: -0.11198782, y: -0.89469135, z: -0.0068851355, w: 0.051849075}
        outSlope: {x: -0.11198782, y: -0.89469135, z: -0.0068851355, w: 0.051849075}
        tangentMode: 0
        weightedMode: 0
        inWeight: {x: 0.33333334, y: 0.33333334, z: 0.33333334, w: 0.33333334}
        outWeight: {x: 0.33333334, y: 0.33333334, z: 0.33333334, w: 0.33333334}
      - serializedVersion: 3
        time: 1.125
        value: {x: -0.09207289, y: -0.30549493, z: 0.9423393, w: -0.10095596}
        inSlope: {x: -0.09119959, y: -0.85115993, z: -0.2757305, w: 0.08313893}
        outSlope: {x: -0.09119959, y: -0.85115993, z: -0.2757305, w: 0.08313893}
        tangentMode: 0
        weightedMode: 0
        inWeight: {x: 0.33333334, y: 0.33333334, z: 0.33333334, w: 0.33333334}
        outWeight: {x: 0.33333334, y: 0.33333334, z: 0.33333334, w: 0.33333334}
      - serializedVersion: 3
        time: 1.166667
        value: {x: -0.095785595, y: -0.34053782, z: 0.9302497, w: -0.09744045}
        inSlope: {x: 0.037935223, y: 0.35092598, z: 0.10780683, w: -0.03353913}
        outSlope: {x: 0.037935223, y: 0.35092598, z: 0.10780683, w: -0.03353913}
        tangentMode: 0
        weightedMode: 0
        inWeight: {x: 0.33333334, y: 0.33333334, z: 0.33333334, w: 0.33333334}
        outWeight: {x: 0.33333334, y: 0.33333334, z: 0.33333334, w: 0.33333334}
      - serializedVersion: 3
        time: 1.2083335
        value: {x: -0.088911675, y: -0.2762516, z: 0.95132303, w: -0.10375084}
        inSlope: {x: 0.17386162, y: 1.5928549, z: 0.45997912, w: -0.14854693}
        outSlope: {x: 0.17386162, y: 1.5928549, z: 0.45997912, w: -0.14854693}
        tangentMode: 0
        weightedMode: 0
        inWeight: {x: 0.33333334, y: 0.33333334, z: 0.33333334, w: 0.33333334}
        outWeight: {x: 0.33333334, y: 0.33333334, z: 0.33333334, w: 0.33333334}
      - serializedVersion: 3
        time: 1.416667
        value: {x: -0.045011606, y: 0.08925106, z: 0.9865925, w: -0.12900972}
        inSlope: {x: 0.23447162, y: 1.7934513, z: -0.16144975, w: -0.08192411}
        outSlope: {x: 0.23447162, y: 1.7934513, z: -0.16144975, w: -0.08192411}
        tangentMode: 0
        weightedMode: 0
        inWeight: {x: 0.33333334, y: 0.33333334, z: 0.33333334, w: 0.33333334}
        outWeight: {x: 0.33333334, y: 0.33333334, z: 0.33333334, w: 0.33333334}
      - serializedVersion: 3
        time: 1.541667
        value: {x: -0.015728077, y: 0.30271578, z: 0.94323575, w: -0.13572839}
        inSlope: {x: 0.22331491, y: 1.5789726, z: -0.5064547, w: -0.0422587}
        outSlope: {x: 0.22331491, y: 1.5789726, z: -0.5064547, w: -0.0422587}
        tangentMode: 0
        weightedMode: 0
        inWeight: {x: 0.33333334, y: 0.33333334, z: 0.33333334, w: 0.33333334}
        outWeight: {x: 0.33333334, y: 0.33333334, z: 0.33333334, w: 0.33333334}
      - serializedVersion: 3
        time: 1.5833335
        value: {x: -0.00642763, y: 0.3663879, z: 0.9203751, w: -0.13648532}
        inSlope: {x: 0.006729983, y: 0.04672569, z: -0.0151026845, w: -0.00076443236}
        outSlope: {x: 0.006729983, y: 0.04672569, z: -0.0151026845, w: -0.00076443236}
        tangentMode: 0
        weightedMode: 0
        inWeight: {x: 0.33333334, y: 0.33333334, z: 0.33333334, w: 0.33333334}
        outWeight: {x: 0.33333334, y: 0.33333334, z: 0.33333334, w: 0.33333334}
      - serializedVersion: 3
        time: 1.625
        value: {x: -0.0151672475, y: 0.30660957, z: 0.9419772, w: -0.13579209}
        inSlope: {x: -0.20590036, y: -1.4769452, z: 0.48282695, w: 0.051665664}
        outSlope: {x: -0.20590036, y: -1.4769452, z: 0.48282695, w: 0.051665664}
        tangentMode: 0
        weightedMode: 0
        inWeight: {x: 0.33333334, y: 0.33333334, z: 0.33333334, w: 0.33333334}
        outWeight: {x: 0.33333334, y: 0.33333334, z: 0.33333334, w: 0.33333334}
      - serializedVersion: 3
        time: 1.875
        value: {x: -0.06874608, y: -0.100182645, z: 0.9855425, w: -0.118082635}
        inSlope: {x: -0.19601962, y: -1.6354892, z: -0.16513476, w: 0.11394374}
        outSlope: {x: -0.19601962, y: -1.6354892, z: -0.16513476, w: 0.11394374}
        tangentMode: 0
        weightedMode: 0
        inWeight: {x: 0.33333334, y: 0.33333334, z: 0.33333334, w: 0.33333334}
        outWeight: {x: 0.33333334, y: 0.33333334, z: 0.33333334, w: 0.33333334}
      - serializedVersion: 3
        time: 1.9583335
        value: {x: -0.08402497, y: -0.23201942, z: 0.96306676, w: -0.107746616}
        inSlope: {x: -0.16910882, y: -1.510557, z: -0.36199158, w: 0.13155088}
        outSlope: {x: -0.16910882, y: -1.510557, z: -0.36199158, w: 0.13155088}
        tangentMode: 0
        weightedMode: 0
        inWeight: {x: 0.33333334, y: 0.33333334, z: 0.33333334, w: 0.33333334}
        outWeight: {x: 0.33333334, y: 0.33333334, z: 0.33333334, w: 0.33333334}
      - serializedVersion: 3
        time: 2
        value: {x: -0.09076186, y: -0.2933037, z: 0.9462048, w: -0.10213611}
        inSlope: {x: -0.09606878, y: -0.8769775, z: -0.2471971, w: 0.081027}
        outSlope: {x: -0.09606878, y: -0.8769775, z: -0.2471971, w: 0.081027}
        tangentMode: 0
        weightedMode: 0
        inWeight: {x: 0.33333334, y: 0.33333334, z: 0.33333334, w: 0.33333334}
        outWeight: {x: 0.33333334, y: 0.33333334, z: 0.33333334, w: 0.33333334}
      - serializedVersion: 3
        time: 2.041667
        value: {x: -0.09203069, y: -0.30510074, z: 0.94246703, w: -0.10099438}
        inSlope: {x: -0.030297011, y: -0.28273147, z: -0.09152968, w: 0.027607746}
        outSlope: {x: -0.030297011, y: -0.28273147, z: -0.09152968, w: 0.027607746}
        tangentMode: 0
        weightedMode: 0
        inWeight: {x: 0.33333334, y: 0.33333334, z: 0.33333334, w: 0.33333334}
        outWeight: {x: 0.33333334, y: 0.33333334, z: 0.33333334, w: 0.33333334}
      - serializedVersion: 3
        time: 2.375
        value: {x: -0.101669274, y: -0.39782265, z: 0.9072308, w: -0.091284566}
        inSlope: {x: -0.027383694, y: -0.27215716, z: -0.11933875, w: 0.030498624}
        outSlope: {x: -0.027383694, y: -0.27215716, z: -0.11933875, w: 0.030498624}
        tangentMode: 0
        weightedMode: 0
        inWeight: {x: 0.33333334, y: 0.33333334, z: 0.33333334, w: 0.33333334}
        outWeight: {x: 0.33333334, y: 0.33333334, z: 0.33333334, w: 0.33333334}
      - serializedVersion: 3
        time: 2.416667
        value: {x: -0.102801576, y: -0.40912414, z: 0.9021907, w: -0.09000746}
        inSlope: {x: 0.05351302, y: 0.523511, z: 0.2148536, w: -0.05681888}
        outSlope: {x: 0.05351302, y: 0.523511, z: 0.2148536, w: -0.05681888}
        tangentMode: 0
        weightedMode: 0
        inWeight: {x: 0.33333334, y: 0.33333334, z: 0.33333334, w: 0.33333334}
        outWeight: {x: 0.33333334, y: 0.33333334, z: 0.33333334, w: 0.33333334}
      - serializedVersion: 3
        time: 2.4583335
        value: {x: -0.097209886, y: -0.35419703, z: 0.92513514, w: -0.09601944}
        inSlope: {x: 0.14078996, y: 1.3556666, z: 0.5175181, w: -0.14225775}
        outSlope: {x: 0.14078996, y: 1.3556666, z: 0.5175181, w: -0.14225775}
        tangentMode: 0
        weightedMode: 0
        inWeight: {x: 0.33333334, y: 0.33333334, z: 0.33333334, w: 0.33333334}
        outWeight: {x: 0.33333334, y: 0.33333334, z: 0.33333334, w: 0.33333334}
      - serializedVersion: 3
        time: 2.7083335
        value: {x: -0.053985104, y: 0.019550882, z: 0.9904283, w: -0.1255194}
        inSlope: {x: 0.19299883, y: 1.5232496, z: -0.02925121, w: -0.08312993}
        outSlope: {x: 0.19299883, y: 1.5232496, z: -0.02925121, w: -0.08312993}
        tangentMode: 0
        weightedMode: 0
        inWeight: {x: 0.33333334, y: 0.33333334, z: 0.33333334, w: 0.33333334}
        outWeight: {x: 0.33333334, y: 0.33333334, z: 0.33333334, w: 0.33333334}
      - serializedVersion: 3
        time: 2.791667
        value: {x: -0.037831496, y: 0.14350158, z: 0.98017234, w: -0.13129477}
        inSlope: {x: 0.19664638, y: 1.4366242, z: -0.20593911, w: -0.034601703}
        outSlope: {x: 0.19664638, y: 1.4366242, z: -0.20593911, w: -0.034601703}
        tangentMode: 0
        weightedMode: 0
        inWeight: {x: 0.33333334, y: 0.33333334, z: 0.33333334, w: 0.33333334}
        outWeight: {x: 0.33333334, y: 0.33333334, z: 0.33333334, w: 0.33333334}
      - serializedVersion: 3
        time: 2.8333335
        value: {x: -0.029512502, y: 0.20216802, z: 0.9700226, w: -0.13157973}
        inSlope: {x: 0.01865872, y: 0.11796987, z: -0.015279345, w: 0.014162296}
        outSlope: {x: 0.01865872, y: 0.11796987, z: -0.015279345, w: 0.014162296}
        tangentMode: 0
        weightedMode: 0
        inWeight: {x: 0.33333334, y: 0.33333334, z: 0.33333334, w: 0.33333334}
        outWeight: {x: 0.33333334, y: 0.33333334, z: 0.33333334, w: 0.33333334}
      - serializedVersion: 3
        time: 2.875
        value: {x: -0.03627661, y: 0.15333237, z: 0.97889906, w: -0.13011459}
        inSlope: {x: -0.16438258, y: -1.1902677, z: 0.18277913, w: 0.023470603}
        outSlope: {x: -0.16438258, y: -1.1902677, z: 0.18277913, w: 0.023470603}
        tangentMode: 0
        weightedMode: 0
        inWeight: {x: 0.33333334, y: 0.33333334, z: 0.33333334, w: 0.33333334}
        outWeight: {x: 0.33333334, y: 0.33333334, z: 0.33333334, w: 0.33333334}
      m_PreInfinity: 2
      m_PostInfinity: 2
      m_RotationOrder: 4
    path: Armature.002/Principal/Cintura/Espina1/Espina2/Brazo.R
  - curve:
      serializedVersion: 2
      m_Curve:
      - serializedVersion: 3
        time: 0.75
        value: {x: 0.98974794, y: -0.000000010782991, z: -0.00000007472389, w: -0.14282513}
        inSlope: {x: 0.11851268, y: 0.000000072241946, z: -0.000000008947484, w: 0.95687383}
        outSlope: {x: 0.11851268, y: 0.000000072241946, z: -0.000000008947484, w: 0.95687383}
        tangentMode: 0
        weightedMode: 0
        inWeight: {x: 0.33333334, y: 0.33333334, z: 0.33333334, w: 0.33333334}
        outWeight: {x: 0.33333334, y: 0.33333334, z: 0.33333334, w: 0.33333334}
      - serializedVersion: 3
        time: 1.041667
        value: {x: 0.98954946, y: 0.000000010886354, z: -0.00000007470891, w: 0.14419405}
        inSlope: {x: -0.14267907, y: 0.0000000739974, z: 0.0000000107719575, w: 0.9801252}
        outSlope: {x: -0.14267907, y: 0.0000000739974, z: 0.0000000107719575, w: 0.9801252}
        tangentMode: 0
        weightedMode: 0
        inWeight: {x: 0.33333334, y: 0.33333334, z: 0.33333334, w: 0.33333334}
        outWeight: {x: 0.33333334, y: 0.33333334, z: 0.33333334, w: 0.33333334}
      - serializedVersion: 3
        time: 1.125
        value: {x: 0.9744452, y: 0.00000001695875, z: -0.000000073568565, w: 0.22462538}
        inSlope: {x: -0.21774335, y: 0.00000007140338, z: 0.000000016439163, w: 0.9457668}
        outSlope: {x: -0.21774335, y: 0.00000007140338, z: 0.000000016439163, w: 0.9457668}
        tangentMode: 0
        weightedMode: 0
        inWeight: {x: 0.33333334, y: 0.33333334, z: 0.33333334, w: 0.33333334}
        outWeight: {x: 0.33333334, y: 0.33333334, z: 0.33333334, w: 0.33333334}
      - serializedVersion: 3
        time: 1.166667
        value: {x: 0.96463656, y: 0.000000019900012, z: -0.00000007282804, w: 0.2635836}
        inSlope: {x: 0.048405044, y: -0.00000001655998, z: -0.0000000036544936, w: -0.21934348}
        outSlope: {x: 0.048405044, y: -0.00000001655998, z: -0.0000000036544936, w: -0.21934348}
        tangentMode: 0
        weightedMode: 0
        inWeight: {x: 0.33333334, y: 0.33333334, z: 0.33333334, w: 0.33333334}
        outWeight: {x: 0.33333334, y: 0.33333334, z: 0.33333334, w: 0.33333334}
      - serializedVersion: 3
        time: 1.2083335
        value: {x: 0.97847885, y: 0.000000015578792, z: -0.000000073873096, w: 0.20634727}
        inSlope: {x: 0.2947237, y: -0.00000010599024, z: -0.000000022251044, w: -1.4038836}
        outSlope: {x: 0.2947237, y: -0.00000010599024, z: -0.000000022251044, w: -1.4038836}
        tangentMode: 0
        weightedMode: 0
        inWeight: {x: 0.33333334, y: 0.33333334, z: 0.33333334, w: 0.33333334}
        outWeight: {x: 0.33333334, y: 0.33333334, z: 0.33333334, w: 0.33333334}
      - serializedVersion: 3
        time: 1.5
        value: {x: 0.9734718, y: -0.000000017274433, z: -0.00000007349508, w: -0.22880687}
        inSlope: {x: -0.3361307, y: -0.0000001083191, z: 0.000000025377224, w: -1.43473}
        outSlope: {x: -0.3361307, y: -0.0000001083191, z: 0.000000025377224, w: -1.43473}
        tangentMode: 0
        weightedMode: 0
        inWeight: {x: 0.33333334, y: 0.33333334, z: 0.33333334, w: 0.33333334}
        outWeight: {x: 0.33333334, y: 0.33333334, z: 0.33333334, w: 0.33333334}
      - serializedVersion: 3
        time: 1.541667
        value: {x: 0.957794, y: -0.00000002170228, z: -0.00000007231144, w: -0.2874555}
        inSlope: {x: -0.41109693, y: -0.00000010375773, z: 0.000000031036976, w: -1.3743126}
        outSlope: {x: -0.41109693, y: -0.00000010375773, z: 0.000000031036976, w: -1.3743126}
        tangentMode: 0
        weightedMode: 0
        inWeight: {x: 0.33333334, y: 0.33333334, z: 0.33333334, w: 0.33333334}
        outWeight: {x: 0.33333334, y: 0.33333334, z: 0.33333334, w: 0.33333334}
      - serializedVersion: 3
        time: 1.5833335
        value: {x: 0.9392137, y: -0.000000025920928, z: -0.00000007090866, w: -0.34333315}
        inSlope: {x: 0.021519989, y: 0.000000005476025, z: -0.0000000016248194, w: 0.07253224}
        outSlope: {x: 0.021519989, y: 0.000000005476025, z: -0.0000000016248194, w: 0.07253224}
        tangentMode: 0
        weightedMode: 0
        inWeight: {x: 0.33333334, y: 0.33333334, z: 0.33333334, w: 0.33333334}
        outWeight: {x: 0.33333334, y: 0.33333334, z: 0.33333334, w: 0.33333334}
      - serializedVersion: 3
        time: 1.625
        value: {x: 0.95958734, y: -0.000000021245947, z: -0.00000007244684, w: -0.28141117}
        inSlope: {x: 0.44665945, y: 0.00000011553243, z: -0.000000033721886, w: 1.5302734}
        outSlope: {x: 0.44665945, y: 0.00000011553243, z: -0.000000033721886, w: 1.5302734}
        tangentMode: 0
        weightedMode: 0
        inWeight: {x: 0.33333334, y: 0.33333334, z: 0.33333334, w: 0.33333334}
        outWeight: {x: 0.33333334, y: 0.33333334, z: 0.33333334, w: 0.33333334}
      - serializedVersion: 3
        time: 1.875
        value: {x: 0.99041164, y: 0.000000010429895, z: -0.000000074774, w: 0.13814808}
        inSlope: {x: -0.23235148, y: 0.00000012642289, z: 0.000000017542133, w: 1.6745219}
        outSlope: {x: -0.23235148, y: 0.00000012642289, z: 0.000000017542133, w: 1.6745219}
        tangentMode: 0
        weightedMode: 0
        inWeight: {x: 0.33333334, y: 0.33333334, z: 0.33333334, w: 0.33333334}
        outWeight: {x: 0.33333334, y: 0.33333334, z: 0.33333334, w: 0.33333334}
      - serializedVersion: 3
        time: 1.9583335
        value: {x: 0.96212125, y: 0.000000020582394, z: -0.00000007263813, w: 0.272622}
        inSlope: {x: -0.4326427, y: 0.00000011583593, z: 0.000000032663575, w: 1.5342934}
        outSlope: {x: -0.4326427, y: 0.00000011583593, z: 0.000000032663575, w: 1.5342934}
        tangentMode: 0
        weightedMode: 0
        inWeight: {x: 0.33333334, y: 0.33333334, z: 0.33333334, w: 0.33333334}
        outWeight: {x: 0.33333334, y: 0.33333334, z: 0.33333334, w: 0.33333334}
      - serializedVersion: 3
        time: 2
        value: {x: 0.9423149, y: 0.000000025271252, z: -0.0000000711428, w: 0.3347278}
        inSlope: {x: 0.015624061, y: -0.000000004201638, z: -0.0000000011795986, w: -0.0556522}
        outSlope: {x: 0.015624061, y: -0.000000004201638, z: -0.0000000011795986, w: -0.0556522}
        tangentMode: 0
        weightedMode: 0
        inWeight: {x: 0.33333334, y: 0.33333334, z: 0.33333334, w: 0.33333334}
        outWeight: {x: 0.33333334, y: 0.33333334, z: 0.33333334, w: 0.33333334}
      - serializedVersion: 3
        time: 2.041667
        value: {x: 0.9634235, y: 0.000000020232202, z: -0.00000007273645, w: 0.26798356}
        inSlope: {x: 0.4576359, y: -0.00000012499359, z: -0.00000003455054, w: -1.65559}
        outSlope: {x: 0.4576359, y: -0.00000012499359, z: -0.00000003455054, w: -1.65559}
        tangentMode: 0
        weightedMode: 0
        inWeight: {x: 0.33333334, y: 0.33333334, z: 0.33333334, w: 0.33333334}
        outWeight: {x: 0.33333334, y: 0.33333334, z: 0.33333334, w: 0.33333334}
      - serializedVersion: 3
        time: 2.25
        value: {x: 0.9936313, y: -0.000000008507124, z: -0.00000007501708, w: -0.11268034}
        inSlope: {x: -0.21038666, y: -0.00000014066997, z: 0.000000015883725, w: -1.8632302}
        outSlope: {x: -0.21038666, y: -0.00000014066997, z: 0.000000015883725, w: -1.8632302}
        tangentMode: 0
        weightedMode: 0
        inWeight: {x: 0.33333334, y: 0.33333334, z: 0.33333334, w: 0.33333334}
        outWeight: {x: 0.33333334, y: 0.33333334, z: 0.33333334, w: 0.33333334}
      - serializedVersion: 3
        time: 2.375
        value: {x: 0.94283396, y: -0.000000025160647, z: -0.00000007118199, w: -0.33326292}
        inSlope: {x: -0.5698179, y: -0.0000001223364, z: 0.00000004302008, w: -1.6203945}
        outSlope: {x: -0.5698179, y: -0.0000001223364, z: 0.00000004302008, w: -1.6203945}
        tangentMode: 0
        weightedMode: 0
        inWeight: {x: 0.33333334, y: 0.33333334, z: 0.33333334, w: 0.33333334}
        outWeight: {x: 0.33333334, y: 0.33333334, z: 0.33333334, w: 0.33333334}
      - serializedVersion: 3
        time: 2.416667
        value: {x: 0.9172092, y: -0.000000030078805, z: -0.00000006924737, w: -0.3984059}
        inSlope: {x: -0.08562507, y: -0.000000017700668, z: 0.000000006464475, w: -0.23445278}
        outSlope: {x: -0.08562507, y: -0.000000017700668, z: 0.000000006464475, w: -0.23445278}
        tangentMode: 0
        weightedMode: 0
        inWeight: {x: 0.33333334, y: 0.33333334, z: 0.33333334, w: 0.33333334}
        outWeight: {x: 0.33333334, y: 0.33333334, z: 0.33333334, w: 0.33333334}
      - serializedVersion: 3
        time: 2.4583335
        value: {x: 0.9356983, y: -0.000000026635753, z: -0.00000007064326, w: -0.35280132}
        inSlope: {x: 0.42031378, y: 0.00000008429264, z: -0.000000031732817, w: 1.1164899}
        outSlope: {x: 0.42031378, y: 0.00000008429264, z: -0.000000031732817, w: 1.1164899}
        tangentMode: 0
        weightedMode: 0
        inWeight: {x: 0.33333334, y: 0.33333334, z: 0.33333334, w: 0.33333334}
        outWeight: {x: 0.33333334, y: 0.33333334, z: 0.33333334, w: 0.33333334}
      - serializedVersion: 3
        time: 2.791667
        value: {x: 0.998805, y: 0.0000000036898924, z: -0.000000075407684, w: 0.04887403}
        inSlope: {x: -0.057694014, y: 0.00000008996207, z: 0.0000000043557735, w: 1.1915838}
        outSlope: {x: -0.057694014, y: 0.00000008996207, z: 0.0000000043557735, w: 1.1915838}
        tangentMode: 0
        weightedMode: 0
        inWeight: {x: 0.33333334, y: 0.33333334, z: 0.33333334, w: 0.33333334}
        outWeight: {x: 0.33333334, y: 0.33333334, z: 0.33333334, w: 0.33333334}
      - serializedVersion: 3
        time: 2.8333335
        value: {x: 0.9951913, y: 0.0000000073950917, z: -0.00000007513485, w: 0.09795088}
        inSlope: {x: -0.013898186, y: 0.000000017837335, z: 0.0000000010492767, w: 0.23626271}
        outSlope: {x: -0.013898186, y: 0.000000017837335, z: 0.0000000010492767, w: 0.23626271}
        tangentMode: 0
        weightedMode: 0
        inWeight: {x: 0.33333334, y: 0.33333334, z: 0.33333334, w: 0.33333334}
        outWeight: {x: 0.33333334, y: 0.33333334, z: 0.33333334, w: 0.33333334}
      - serializedVersion: 3
        time: 2.875
        value: {x: 0.9976468, y: 0.0000000051763314, z: -0.000000075320244, w: 0.068562515}
        inSlope: {x: 0.04862019, y: -0.000000053495107, z: -0.0000000036707464, w: -0.70856416}
        outSlope: {x: 0.04862019, y: -0.000000053495107, z: -0.0000000036707464, w: -0.70856416}
        tangentMode: 0
        weightedMode: 0
        inWeight: {x: 0.33333334, y: 0.33333334, z: 0.33333334, w: 0.33333334}
        outWeight: {x: 0.33333334, y: 0.33333334, z: 0.33333334, w: 0.33333334}
      m_PreInfinity: 2
      m_PostInfinity: 2
      m_RotationOrder: 4
    path: Armature.002/Principal/Cintura/Pierna.L
  - curve:
      serializedVersion: 2
      m_Curve:
      - serializedVersion: 3
        time: 0
        value: {x: 0.9998712, y: -0.0000000017773159, z: -0.00000007538466, w: 0.01567735}
        inSlope: {x: 0.0013829473, y: -0.000000007141267, z: 1.761045e-10, w: -0.094722815}
        outSlope: {x: 0.0013829473, y: -0.000000007141267, z: 1.761045e-10, w: -0.094722815}
        tangentMode: 0
        weightedMode: 0
        inWeight: {x: 0.33333334, y: 0.33333334, z: 0.33333334, w: 0.33333334}
        outWeight: {x: 0.33333334, y: 0.33333334, z: 0.33333334, w: 0.33333334}
      - serializedVersion: 3
        time: 0.29166675
        value: {x: 0.9999286, y: -0.000000003859461, z: -0.00000007530724, w: -0.011954114}
        inSlope: {x: -0.0011322476, y: -0.00000000713368, z: 3.6561618e-10, w: -0.09472093}
        outSlope: {x: -0.0011322476, y: -0.00000000713368, z: 3.6561618e-10, w: -0.09472093}
        tangentMode: 0
        weightedMode: 0
        inWeight: {x: 0.33333334, y: 0.33333334, z: 0.33333334, w: 0.33333334}
        outWeight: {x: 0.33333334, y: 0.33333334, z: 0.33333334, w: 0.33333334}
      - serializedVersion: 3
        time: 0.375
        value: {x: 0.99999535, y: -0.0000000031887701, z: -0.00000007533861, w: -0.0030502467}
        inSlope: {x: 0.00093913736, y: 0.000000023250703, z: -9.839609e-10, w: 0.30861452}
        outSlope: {x: 0.00093913736, y: 0.000000023250703, z: -9.839609e-10, w: 0.30861452}
        tangentMode: 0
        weightedMode: 0
        inWeight: {x: 0.33333334, y: 0.33333334, z: 0.33333334, w: 0.33333334}
        outWeight: {x: 0.33333334, y: 0.33333334, z: 0.33333334, w: 0.33333334}
      - serializedVersion: 3
        time: 0.7083335
        value: {x: 0.9950029, y: 0.0000000045790056, z: -0.00000007526691, w: 0.09984571}
        inSlope: {x: -0.03081119, y: 0.00000002322853, z: 0.0000000014129338, w: 0.30707324}
        outSlope: {x: -0.03081119, y: 0.00000002322853, z: 0.0000000014129338, w: 0.30707324}
        tangentMode: 0
        weightedMode: 0
        inWeight: {x: 0.33333334, y: 0.33333334, z: 0.33333334, w: 0.33333334}
        outWeight: {x: 0.33333334, y: 0.33333334, z: 0.33333334, w: 0.33333334}
      - serializedVersion: 3
        time: 0.75
        value: {x: 0.99363774, y: 0.0000000055458527, z: -0.00000007520186, w: 0.11262385}
        inSlope: {x: 0.033248935, y: -0.000000030075455, z: -0.0000000013280707, w: -0.39784825}
        outSlope: {x: 0.033248935, y: -0.000000030075455, z: -0.0000000013280707, w: -0.39784825}
        tangentMode: 0
        weightedMode: 0
        inWeight: {x: 0.33333334, y: 0.33333334, z: 0.33333334, w: 0.33333334}
        outWeight: {x: 0.33333334, y: 0.33333334, z: 0.33333334, w: 0.33333334}
      - serializedVersion: 3
        time: 0.791667
        value: {x: 0.9977737, y: 0.0000000020726876, z: -0.000000075377585, w: 0.06669129}
        inSlope: {x: 0.073998645, y: -0.000000084164654, z: -0.0000000022790363, w: -1.1141064}
        outSlope: {x: 0.073998645, y: -0.000000084164654, z: -0.0000000022790363, w: -1.1141064}
        tangentMode: 0
        weightedMode: 0
        inWeight: {x: 0.33333334, y: 0.33333334, z: 0.33333334, w: 0.33333334}
        outWeight: {x: 0.33333334, y: 0.33333334, z: 0.33333334, w: 0.33333334}
      - serializedVersion: 3
        time: 1.125
        value: {x: 0.95078856, y: -0.000000026159203, z: -0.0000000707232, w: -0.30984056}
        inSlope: {x: -0.34550852, y: -0.000000078978324, z: 0.000000029175105, w: -1.0617491}
        outSlope: {x: -0.34550852, y: -0.000000078978324, z: 0.000000029175105, w: -1.0617491}
        tangentMode: 0
        weightedMode: 0
        inWeight: {x: 0.33333334, y: 0.33333334, z: 0.33333334, w: 0.33333334}
        outWeight: {x: 0.33333334, y: 0.33333334, z: 0.33333334, w: 0.33333334}
      - serializedVersion: 3
        time: 1.166667
        value: {x: 0.9354922, y: -0.000000029392092, z: -0.00000006944192, w: -0.35334736}
        inSlope: {x: 0.022964045, y: 0.000000005298496, z: -0.000000001941073, w: 0.07122213}
        outSlope: {x: 0.022964045, y: 0.000000005298496, z: -0.000000001941073, w: 0.07122213}
        tangentMode: 0
        weightedMode: 0
        inWeight: {x: 0.33333334, y: 0.33333334, z: 0.33333334, w: 0.33333334}
        outWeight: {x: 0.33333334, y: 0.33333334, z: 0.33333334, w: 0.33333334}
      - serializedVersion: 3
        time: 1.2083335
        value: {x: 0.95270205, y: -0.0000000257177, z: -0.000000070884944, w: -0.3039059}
        inSlope: {x: 0.38549644, y: 0.00000009011245, z: -0.00000003262998, w: 1.2110889}
        outSlope: {x: 0.38549644, y: 0.00000009011245, z: -0.00000003262998, w: 1.2110889}
        tangentMode: 0
        weightedMode: 0
        inWeight: {x: 0.33333334, y: 0.33333334, z: 0.33333334, w: 0.33333334}
        outWeight: {x: 0.33333334, y: 0.33333334, z: 0.33333334, w: 0.33333334}
      - serializedVersion: 3
        time: 1.541667
        value: {x: 0.9916552, y: 0.0000000067795023, z: -0.00000007510069, w: 0.12891869}
        inSlope: {x: -0.16306317, y: 0.000000095455164, z: 0.0000000085568646, w: 1.2604539}
        outSlope: {x: -0.16306317, y: 0.000000095455164, z: 0.0000000085568646, w: 1.2604539}
        tangentMode: 0
        weightedMode: 0
        inWeight: {x: 0.33333334, y: 0.33333334, z: 0.33333334, w: 0.33333334}
        outWeight: {x: 0.33333334, y: 0.33333334, z: 0.33333334, w: 0.33333334}
      - serializedVersion: 3
        time: 1.5833335
        value: {x: 0.9835496, y: 0.000000010700459, z: -0.00000007464298, w: 0.18063836}
        inSlope: {x: -0.03160727, y: 0.000000017141865, z: 0.0000000017119599, w: 0.2262615}
        outSlope: {x: -0.03160727, y: 0.000000017141865, z: 0.0000000017119599, w: 0.2262615}
        tangentMode: 0
        weightedMode: 0
        inWeight: {x: 0.33333334, y: 0.33333334, z: 0.33333334, w: 0.33333334}
        outWeight: {x: 0.33333334, y: 0.33333334, z: 0.33333334, w: 0.33333334}
      - serializedVersion: 3
        time: 1.625
        value: {x: 0.98902124, y: 0.000000008207985, z: -0.000000074958024, w: 0.14777374}
        inSlope: {x: 0.11856565, y: -0.000000060204684, z: -0.0000000065833134, w: -0.79436576}
        outSlope: {x: 0.11856565, y: -0.000000060204684, z: -0.0000000065833134, w: -0.79436576}
        tangentMode: 0
        weightedMode: 0
        inWeight: {x: 0.33333334, y: 0.33333334, z: 0.33333334, w: 0.33333334}
        outWeight: {x: 0.33333334, y: 0.33333334, z: 0.33333334, w: 0.33333334}
      - serializedVersion: 3
        time: 1.9583335
        value: {x: 0.9924621, y: -0.000000012170703, z: -0.0000000744174, w: -0.12255208}
        inSlope: {x: -0.09830727, y: -0.000000059770976, z: 0.000000009765879, w: -0.7971263}
        outSlope: {x: -0.09830727, y: -0.000000059770976, z: 0.000000009765879, w: -0.7971263}
        tangentMode: 0
        weightedMode: 0
        inWeight: {x: 0.33333334, y: 0.33333334, z: 0.33333334, w: 0.33333334}
        outWeight: {x: 0.33333334, y: 0.33333334, z: 0.33333334, w: 0.33333334}
      - serializedVersion: 3
        time: 2
        value: {x: 0.9878288, y: -0.0000000146429695, z: -0.00000007397067, w: -0.15554535}
        inSlope: {x: -0.073868826, y: -0.000000038092576, z: 0.0000000070703625, w: -0.5084561}
        outSlope: {x: -0.073868826, y: -0.000000038092576, z: 0.0000000070703625, w: -0.5084561}
        tangentMode: 0
        weightedMode: 0
        inWeight: {x: 0.33333334, y: 0.33333334, z: 0.33333334, w: 0.33333334}
        outWeight: {x: 0.33333334, y: 0.33333334, z: 0.33333334, w: 0.33333334}
      - serializedVersion: 3
        time: 2.0833335
        value: {x: 0.9846938, y: -0.000000016046306, z: -0.000000073678976, w: -0.17429319}
        inSlope: {x: -0.039781246, y: -0.00000001681667, z: 0.0000000036624923, w: -0.22474888}
        outSlope: {x: -0.039781246, y: -0.00000001681667, z: 0.0000000036624923, w: -0.22474888}
        tangentMode: 0
        weightedMode: 0
        inWeight: {x: 0.33333334, y: 0.33333334, z: 0.33333334, w: 0.33333334}
        outWeight: {x: 0.33333334, y: 0.33333334, z: 0.33333334, w: 0.33333334}
      - serializedVersion: 3
        time: 2.375
        value: {x: 0.9709111, y: -0.000000020914225, z: -0.000000072447705, w: -0.23944029}
        inSlope: {x: -0.054613955, y: -0.000000016524798, z: 0.0000000047703184, w: -0.22145796}
        outSlope: {x: -0.054613955, y: -0.000000016524798, z: 0.0000000047703184, w: -0.22145796}
        tangentMode: 0
        weightedMode: 0
        inWeight: {x: 0.33333334, y: 0.33333334, z: 0.33333334, w: 0.33333334}
        outWeight: {x: 0.33333334, y: 0.33333334, z: 0.33333334, w: 0.33333334}
      - serializedVersion: 3
        time: 2.416667
        value: {x: 0.96859246, y: -0.000000021601565, z: -0.00000007224575, w: -0.24865355}
        inSlope: {x: 0.115829274, y: 0.000000038752283, z: -0.000000010262833, w: 0.51885974}
        outSlope: {x: 0.115829274, y: 0.000000038752283, z: -0.000000010262833, w: 0.51885974}
        tangentMode: 0
        weightedMode: 0
        inWeight: {x: 0.33333334, y: 0.33333334, z: 0.33333334, w: 0.33333334}
        outWeight: {x: 0.33333334, y: 0.33333334, z: 0.33333334, w: 0.33333334}
      - serializedVersion: 3
        time: 2.4583335
        value: {x: 0.98056346, y: -0.000000017684888, z: -0.000000073302935, w: -0.19620225}
        inSlope: {x: 0.25557473, y: 0.00000009582651, z: -0.000000023049811, w: 1.2818224}
        outSlope: {x: 0.25557473, y: 0.00000009582651, z: -0.000000023049811, w: 1.2818224}
        tangentMode: 0
        weightedMode: 0
        inWeight: {x: 0.33333334, y: 0.33333334, z: 0.33333334, w: 0.33333334}
        outWeight: {x: 0.33333334, y: 0.33333334, z: 0.33333334, w: 0.33333334}
      - serializedVersion: 3
        time: 2.75
        value: {x: 0.98030627, y: 0.000000011979284, z: -0.00000007444845, w: 0.19748324}
        inSlope: {x: -0.2631705, y: 0.00000009948364, z: 0.000000015953145, w: 1.3099878}
        outSlope: {x: -0.2631705, y: 0.00000009948364, z: 0.000000015953145, w: 1.3099878}
        tangentMode: 0
        weightedMode: 0
        inWeight: {x: 0.33333334, y: 0.33333334, z: 0.33333334, w: 0.33333334}
        outWeight: {x: 0.33333334, y: 0.33333334, z: 0.33333334, w: 0.33333334}
      - serializedVersion: 3
        time: 2.791667
        value: {x: 0.9679254, y: 0.0000000160662, z: -0.00000007367464, w: 0.2512376}
        inSlope: {x: -0.3275173, y: 0.000000096310615, z: 0.000000020933586, w: 1.2653489}
        outSlope: {x: -0.3275173, y: 0.000000096310615, z: 0.000000020933586, w: 1.2653489}
        tangentMode: 0
        weightedMode: 0
        inWeight: {x: 0.33333334, y: 0.33333334, z: 0.33333334, w: 0.33333334}
        outWeight: {x: 0.33333334, y: 0.33333334, z: 0.33333334, w: 0.33333334}
      - serializedVersion: 3
        time: 2.8333335
        value: {x: 0.9530131, y: 0.000000020005185, z: -0.00000007270398, w: 0.3029292}
        inSlope: {x: 0.0012938976, y: -3.795364e-10, z: -8.2707174e-11, w: -0.0049864054}
        outSlope: {x: 0.0012938976, y: -3.795364e-10, z: -8.2707174e-11, w: -0.0049864054}
        tangentMode: 0
        weightedMode: 0
        inWeight: {x: 0.33333334, y: 0.33333334, z: 0.33333334, w: 0.33333334}
        outWeight: {x: 0.33333334, y: 0.33333334, z: 0.33333334, w: 0.33333334}
      - serializedVersion: 3
        time: 2.875
        value: {x: 0.96803325, y: 0.000000016034573, z: -0.000000073681534, w: 0.25082207}
        inSlope: {x: 0.32963017, y: -0.000000097108895, z: -0.000000021061654, w: -1.2758605}
        outSlope: {x: 0.32963017, y: -0.000000097108895, z: -0.000000021061654, w: -1.2758605}
        tangentMode: 0
        weightedMode: 0
        inWeight: {x: 0.33333334, y: 0.33333334, z: 0.33333334, w: 0.33333334}
        outWeight: {x: 0.33333334, y: 0.33333334, z: 0.33333334, w: 0.33333334}
      m_PreInfinity: 2
      m_PostInfinity: 2
      m_RotationOrder: 4
    path: Armature.002/Principal/Cintura/Pierna.R
  m_CompressedRotationCurves: []
  m_EulerCurves: []
  m_PositionCurves: []
  m_ScaleCurves: []
  m_FloatCurves: []
  m_PPtrCurves: []
  m_SampleRate: 24
  m_WrapMode: 0
  m_Bounds:
    m_Center: {x: 0, y: 0, z: 0}
    m_Extent: {x: 0, y: 0, z: 0}
  m_ClipBindingConstant:
    genericBindings:
    - serializedVersion: 2
      path: 1564428933
      attribute: 2
      script: {fileID: 0}
      typeID: 4
      customType: 0
      isPPtrCurve: 0
    - serializedVersion: 2
      path: 872000360
      attribute: 2
      script: {fileID: 0}
      typeID: 4
      customType: 0
      isPPtrCurve: 0
    - serializedVersion: 2
      path: 3388380683
      attribute: 2
      script: {fileID: 0}
      typeID: 4
      customType: 0
      isPPtrCurve: 0
    - serializedVersion: 2
      path: 1315138873
      attribute: 2
      script: {fileID: 0}
      typeID: 4
      customType: 0
      isPPtrCurve: 0
    - serializedVersion: 2
      path: 3026997338
      attribute: 2
      script: {fileID: 0}
      typeID: 4
      customType: 0
      isPPtrCurve: 0
    pptrCurveMapping: []
  m_AnimationClipSettings:
    serializedVersion: 2
    m_AdditiveReferencePoseClip: {fileID: 0}
    m_AdditiveReferencePoseTime: 0
    m_StartTime: 0
    m_StopTime: 2.875
    m_OrientationOffsetY: 0
    m_Level: 0
    m_CycleOffset: 0
    m_HasAdditiveReferencePose: 0
    m_LoopTime: 1
    m_LoopBlend: 0
    m_LoopBlendOrientation: 0
    m_LoopBlendPositionY: 0
    m_LoopBlendPositionXZ: 0
    m_KeepOriginalOrientation: 0
    m_KeepOriginalPositionY: 1
    m_KeepOriginalPositionXZ: 0
    m_HeightFromFeet: 0
    m_Mirror: 0
  m_EditorCurves: []
  m_EulerEditorCurves: []
  m_HasGenericRootTransform: 0
  m_HasMotionFloatCurves: 0
  m_Events: []
