%YAML 1.1
%TAG !u! tag:unity3d.com,2011:
--- !u!74 &7400000
AnimationClip:
  m_ObjectHideFlags: 0
  m_CorrespondingSourceObject: {fileID: 0}
  m_PrefabInstance: {fileID: 0}
  m_PrefabAsset: {fileID: 0}
  m_Name: Armature.002_Walk
  serializedVersion: 6
  m_Legacy: 0
  m_Compressed: 0
  m_UseHighQualityCurve: 1
  m_RotationCurves:
  - curve:
      serializedVersion: 2
      m_Curve:
      - serializedVersion: 3
        time: 0
        value: {x: -0.07658918, y: 0.16774696, z: 0.9764363, w: 0.113744706}
        inSlope: {x: 0.057638697, y: -0.5526791, z: 0.101858124, w: 0.0127937775}
        outSlope: {x: 0.057638697, y: -0.5526791, z: 0.101858124, w: 0.0127937775}
        tangentMode: 0
        weightedMode: 0
        inWeight: {x: 0.33333334, y: 0.33333334, z: 0.33333334, w: 0.33333334}
        outWeight: {x: 0.33333334, y: 0.33333334, z: 0.33333334, w: 0.33333334}
      - serializedVersion: 3
        time: 0.041666687
        value: {x: -0.07277617, y: 0.13410039, z: 0.9815027, w: 0.11564236}
        inSlope: {x: 0.13250151, y: -1.1193452, z: 0.14208272, w: 0.08163546}
        outSlope: {x: 0.13250151, y: -1.1193452, z: 0.14208272, w: 0.08163546}
        tangentMode: 0
        weightedMode: 0
        inWeight: {x: 0.33333334, y: 0.33333334, z: 0.33333334, w: 0.33333334}
        outWeight: {x: 0.33333334, y: 0.33333334, z: 0.33333334, w: 0.33333334}
      - serializedVersion: 3
        time: 0.16666672
        value: {x: -0.04769763, y: -0.068615064, z: 0.9882421, w: 0.12804106}
        inSlope: {x: 0.23820382, y: -1.8384986, z: -0.12764964, w: 0.08873536}
        outSlope: {x: 0.23820382, y: -1.8384986, z: -0.12764964, w: 0.08873536}
        tangentMode: 0
        weightedMode: 0
        inWeight: {x: 0.33333334, y: 0.33333334, z: 0.33333334, w: 0.33333334}
        outWeight: {x: 0.33333334, y: 0.33333334, z: 0.33333334, w: 0.33333334}
      - serializedVersion: 3
        time: 0.37500003
        value: {x: -0.014073406, y: -0.31740558, z: 0.9381855, w: 0.13734515}
        inSlope: {x: -0.002070753, y: 0.026533827, z: 0.0093476735, w: -0.0058574053}
        outSlope: {x: -0.002070753, y: 0.026533827, z: 0.0093476735, w: -0.0058574053}
        tangentMode: 0
        weightedMode: 0
        inWeight: {x: 0.33333334, y: 0.33333334, z: 0.33333334, w: 0.33333334}
        outWeight: {x: 0.33333334, y: 0.33333334, z: 0.33333334, w: 0.33333334}
      - serializedVersion: 3
        time: 0.54166675
        value: {x: -0.04199565, y: -0.11219819, z: 0.9842469, w: 0.13002291}
        inSlope: {x: -0.281612, y: 2.0954258, z: 0.22560883, w: -0.063360974}
        outSlope: {x: -0.281612, y: 2.0954258, z: 0.22560883, w: -0.063360974}
        tangentMode: 0
        weightedMode: 0
        inWeight: {x: 0.33333334, y: 0.33333334, z: 0.33333334, w: 0.33333334}
        outWeight: {x: 0.33333334, y: 0.33333334, z: 0.33333334, w: 0.33333334}
      - serializedVersion: 3
        time: 0.6250001
        value: {x: -0.065365575, y: 0.072158605, z: 0.98798966, w: 0.11998714}
        inSlope: {x: -0.25583377, y: 2.1021454, z: -0.14410335, w: -0.1378941}
        outSlope: {x: -0.25583377, y: 2.1021454, z: -0.14410335, w: -0.1378941}
        tangentMode: 0
        weightedMode: 0
        inWeight: {x: 0.33333334, y: 0.33333334, z: 0.33333334, w: 0.33333334}
        outWeight: {x: 0.33333334, y: 0.33333334, z: 0.33333334, w: 0.33333334}
      - serializedVersion: 3
        time: 0.7500001
        value: {x: -0.087535724, y: 0.26368102, z: 0.95488364, w: 0.1049146}
        inSlope: {x: -0.077438146, y: 0.6992706, z: -0.18242076, w: -0.0627613}
        outSlope: {x: -0.077438146, y: 0.6992706, z: -0.18242076, w: -0.0627613}
        tangentMode: 0
        weightedMode: 0
        inWeight: {x: 0.33333334, y: 0.33333334, z: 0.33333334, w: 0.33333334}
        outWeight: {x: 0.33333334, y: 0.33333334, z: 0.33333334, w: 0.33333334}
      - serializedVersion: 3
        time: 0.79166675
        value: {x: -0.08921976, y: 0.27907848, z: 0.9504976, w: 0.10348634}
        inSlope: {x: -0.040416814, y: 0.36953938, z: -0.10526428, w: -0.034278307}
        outSlope: {x: -0.040416814, y: 0.36953938, z: -0.10526428, w: -0.034278307}
        tangentMode: 0
        weightedMode: 0
        inWeight: {x: 0.33333334, y: 0.33333334, z: 0.33333334, w: 0.33333334}
        outWeight: {x: 0.33333334, y: 0.33333334, z: 0.33333334, w: 0.33333334}
      m_PreInfinity: 2
      m_PostInfinity: 2
      m_RotationOrder: 4
    path: Armature.002/Principal/Cintura/Espina1/Espina2/Brazo.L
  - curve:
      serializedVersion: 2
      m_Curve:
      - serializedVersion: 3
        time: 0
        value: {x: -0.085653484, y: -0.24652842, z: 0.95966375, w: -0.10649237}
        inSlope: {x: 0.06228759, y: 0.56347054, z: 0.14896773, w: -0.050823204}
        outSlope: {x: 0.06228759, y: 0.56347054, z: 0.14896773, w: -0.050823204}
        tangentMode: 0
        weightedMode: 0
        inWeight: {x: 0.33333334, y: 0.33333334, z: 0.33333334, w: 0.33333334}
        outWeight: {x: 0.33333334, y: 0.33333334, z: 0.33333334, w: 0.33333334}
      - serializedVersion: 3
        time: 0.041666687
        value: {x: -0.0817714, y: -0.21198831, z: 0.9676732, w: -0.109466754}
        inSlope: {x: 0.13123962, y: 1.1540635, z: 0.24075371, w: -0.096006036}
        outSlope: {x: 0.13123962, y: 1.1540635, z: 0.24075371, w: -0.096006036}
        tangentMode: 0
        weightedMode: 0
        inWeight: {x: 0.33333334, y: 0.33333334, z: 0.33333334, w: 0.33333334}
        outWeight: {x: 0.33333334, y: 0.33333334, z: 0.33333334, w: 0.33333334}
      - serializedVersion: 3
        time: 0.16666672
        value: {x: -0.05655476, y: -0.0008199958, z: 0.9906209, w: -0.12438283}
        inSlope: {x: 0.24263819, y: 1.9324397, z: 0.0015999712, w: -0.110323206}
        outSlope: {x: 0.24263819, y: 1.9324397, z: 0.0015999712, w: -0.110323206}
        tangentMode: 0
        weightedMode: 0
        inWeight: {x: 0.33333334, y: 0.33333334, z: 0.33333334, w: 0.33333334}
        outWeight: {x: 0.33333334, y: 0.33333334, z: 0.33333334, w: 0.33333334}
      - serializedVersion: 3
        time: 0.29166672
        value: {x: -0.028516574, y: 0.21041606, z: 0.96816283, w: -0.13256186}
        inSlope: {x: 0.16094856, y: 1.1546772, z: -0.23758511, w: -0.026802609}
        outSlope: {x: 0.16094856, y: 1.1546772, z: -0.23758511, w: -0.026802609}
        tangentMode: 0
        weightedMode: 0
        inWeight: {x: 0.33333334, y: 0.33333334, z: 0.33333334, w: 0.33333334}
        outWeight: {x: 0.33333334, y: 0.33333334, z: 0.33333334, w: 0.33333334}
      - serializedVersion: 3
        time: 0.41666672
        value: {x: -0.023544775, y: 0.2456998, z: 0.9598302, w: -0.13342851}
        inSlope: {x: -0.1035798, y: -0.75866127, z: 0.18358621, w: 0.03307952}
        outSlope: {x: -0.1035798, y: -0.75866127, z: 0.18358621, w: 0.03307952}
        tangentMode: 0
        weightedMode: 0
        inWeight: {x: 0.33333334, y: 0.33333334, z: 0.33333334, w: 0.33333334}
        outWeight: {x: 0.33333334, y: 0.33333334, z: 0.33333334, w: 0.33333334}
      - serializedVersion: 3
        time: 0.54166675
        value: {x: -0.05192239, y: 0.035766944, z: 0.9899754, w: -0.1263867}
        inSlope: {x: -0.29545128, y: -2.3196383, z: 0.07171935, w: 0.12317826}
        outSlope: {x: -0.29545128, y: -2.3196383, z: 0.07171935, w: 0.12317826}
        tangentMode: 0
        weightedMode: 0
        inWeight: {x: 0.33333334, y: 0.33333334, z: 0.33333334, w: 0.33333334}
        outWeight: {x: 0.33333334, y: 0.33333334, z: 0.33333334, w: 0.33333334}
      - serializedVersion: 3
        time: 0.6250001
        value: {x: -0.076694116, y: -0.16763715, z: 0.9763341, w: -0.11308197}
        inSlope: {x: -0.26679802, y: -2.2976213, z: -0.38255948, w: 0.17898749}
        outSlope: {x: -0.26679802, y: -2.2976213, z: -0.38255948, w: 0.17898749}
        tangentMode: 0
        weightedMode: 0
        inWeight: {x: 0.33333334, y: 0.33333334, z: 0.33333334, w: 0.33333334}
        outWeight: {x: 0.33333334, y: 0.33333334, z: 0.33333334, w: 0.33333334}
      - serializedVersion: 3
        time: 0.7500001
        value: {x: -0.09913375, y: -0.37285343, z: 0.917775, w: -0.09403201}
        inSlope: {x: -0.07549319, y: -0.72948456, z: -0.2831387, w: 0.07713425}
        outSlope: {x: -0.07549319, y: -0.72948456, z: -0.2831387, w: 0.07713425}
        tangentMode: 0
        weightedMode: 0
        inWeight: {x: 0.33333334, y: 0.33333334, z: 0.33333334, w: 0.33333334}
        outWeight: {x: 0.33333334, y: 0.33333334, z: 0.33333334, w: 0.33333334}
      - serializedVersion: 3
        time: 0.8333334
        value: {x: -0.10049846, y: -0.38680533, z: 0.91221225, w: -0.09270599}
        inSlope: {x: 0.02215457, y: 0.21375942, z: 0.0823822, w: -0.022527993}
        outSlope: {x: 0.02215457, y: 0.21375942, z: 0.0823822, w: -0.022527993}
        tangentMode: 0
        weightedMode: 0
        inWeight: {x: 0.33333334, y: 0.33333334, z: 0.33333334, w: 0.33333334}
        outWeight: {x: 0.33333334, y: 0.33333334, z: 0.33333334, w: 0.33333334}
      m_PreInfinity: 2
      m_PostInfinity: 2
      m_RotationOrder: 4
    path: Armature.002/Principal/Cintura/Espina1/Espina2/Brazo.R
  - curve:
      serializedVersion: 2
      m_Curve:
      - serializedVersion: 3
        time: 0
        value: {x: 0.97914946, y: 0.000000015508416, z: -0.000000073923715, w: 0.20541513}
        inSlope: {x: 0.08427772, y: -0.00000002987956, z: -0.0000000063627907, w: -0.3957666}
        outSlope: {x: 0.08427772, y: -0.00000002987956, z: -0.0000000063627907, w: -0.3957666}
        tangentMode: 0
        weightedMode: 0
        inWeight: {x: 0.33333334, y: 0.33333334, z: 0.33333334, w: 0.33333334}
        outWeight: {x: 0.33333334, y: 0.33333334, z: 0.33333334, w: 0.33333334}
      - serializedVersion: 3
        time: 0.12500003
        value: {x: 0.99404657, y: 0.000000008225961, z: -0.000000075048426, w: 0.10895609}
        inSlope: {x: 0.11470909, y: -0.000000080481, z: -0.0000000086603755, w: -1.0660031}
        outSlope: {x: 0.11470909, y: -0.000000080481, z: -0.0000000086603755, w: -1.0660031}
        tangentMode: 0
        weightedMode: 0
        inWeight: {x: 0.33333334, y: 0.33333334, z: 0.33333334, w: 0.33333334}
        outWeight: {x: 0.33333334, y: 0.33333334, z: 0.33333334, w: 0.33333334}
      - serializedVersion: 3
        time: 0.29166672
        value: {x: 0.9980906, y: -0.0000000046632356, z: -0.000000075353746, w: -0.0617665}
        inSlope: {x: -0.039344084, y: -0.00000005288553, z: 0.0000000029703822, w: -0.70049}
        outSlope: {x: -0.039344084, y: -0.00000005288553, z: 0.0000000029703822, w: -0.70049}
        tangentMode: 0
        weightedMode: 0
        inWeight: {x: 0.33333334, y: 0.33333334, z: 0.33333334, w: 0.33333334}
        outWeight: {x: 0.33333334, y: 0.33333334, z: 0.33333334, w: 0.33333334}
      - serializedVersion: 3
        time: 0.54166675
        value: {x: 0.99980986, y: -0.0000000014722357, z: -0.00000007548355, w: -0.019500427}
        inSlope: {x: 0.013172146, y: 0.000000054638015, z: -9.944469e-10, w: 0.72370243}
        outSlope: {x: 0.013172146, y: 0.000000054638015, z: -9.944469e-10, w: 0.72370243}
        tangentMode: 0
        weightedMode: 0
        inWeight: {x: 0.33333334, y: 0.33333334, z: 0.33333334, w: 0.33333334}
        outWeight: {x: 0.33333334, y: 0.33333334, z: 0.33333334, w: 0.33333334}
      - serializedVersion: 3
        time: 0.79166675
        value: {x: 0.99305713, y: 0.000000008881041, z: -0.00000007497373, w: 0.11763287}
        inSlope: {x: -0.0035240683, y: 0.0000000023383235, z: 2.6602748e-10, w: 0.030971944}
        outSlope: {x: -0.0035240683, y: 0.0000000023383235, z: 2.6602748e-10, w: 0.030971944}
        tangentMode: 0
        weightedMode: 0
        inWeight: {x: 0.33333334, y: 0.33333334, z: 0.33333334, w: 0.33333334}
        outWeight: {x: 0.33333334, y: 0.33333334, z: 0.33333334, w: 0.33333334}
      - serializedVersion: 3
        time: 0.8333334
        value: {x: 0.9932225, y: 0.000000008705172, z: -0.00000007498621, w: 0.11530342}
        inSlope: {x: 0.010818421, y: -0.000000010311026, z: -8.167865e-10, w: -0.13657372}
        outSlope: {x: 0.010818421, y: -0.000000010311026, z: -8.167865e-10, w: -0.13657372}
        tangentMode: 0
        weightedMode: 0
        inWeight: {x: 0.33333334, y: 0.33333334, z: 0.33333334, w: 0.33333334}
        outWeight: {x: 0.33333334, y: 0.33333334, z: 0.33333334, w: 0.33333334}
      m_PreInfinity: 2
      m_PostInfinity: 2
      m_RotationOrder: 4
    path: Armature.002/Principal/Cintura/Pierna.L
  - curve:
      serializedVersion: 2
      m_Curve:
      - serializedVersion: 3
        time: 0
        value: {x: 0.99502367, y: -0.000000010832114, z: -0.00000007466327, w: -0.104686074}
        inSlope: {x: 0.03164978, y: 0.00000003201811, z: -0.0000000036457322, w: 0.42617935}
        outSlope: {x: 0.03164978, y: 0.00000003201811, z: -0.0000000036457322, w: 0.42617935}
        tangentMode: 0
        weightedMode: 0
        inWeight: {x: 0.33333334, y: 0.33333334, z: 0.33333334, w: 0.33333334}
        outWeight: {x: 0.33333334, y: 0.33333334, z: 0.33333334, w: 0.33333334}
      - serializedVersion: 3
        time: 0.041666687
        value: {x: 0.99694717, y: -0.000000008833019, z: -0.000000074886934, w: -0.07807904}
        inSlope: {x: 0.061507, y: 0.00000006500844, z: -0.0000000071945028, w: 0.8651914}
        outSlope: {x: 0.061507, y: 0.00000006500844, z: -0.0000000071945028, w: 0.8651914}
        tangentMode: 0
        weightedMode: 0
        inWeight: {x: 0.33333334, y: 0.33333334, z: 0.33333334, w: 0.33333334}
        outWeight: {x: 0.33333334, y: 0.33333334, z: 0.33333334, w: 0.33333334}
      - serializedVersion: 3
        time: 0.20833334
        value: {x: 0.99092096, y: 0.000000007198136, z: -0.00000007506172, w: 0.13444586}
        inSlope: {x: -0.17592575, y: 0.000000100145385, z: 0.000000009343268, w: 1.3221962}
        outSlope: {x: -0.17592575, y: 0.000000100145385, z: 0.000000009343268, w: 1.3221962}
        tangentMode: 0
        weightedMode: 0
        inWeight: {x: 0.33333334, y: 0.33333334, z: 0.33333334, w: 0.33333334}
        outWeight: {x: 0.33333334, y: 0.33333334, z: 0.33333334, w: 0.33333334}
      - serializedVersion: 3
        time: 0.41666672
        value: {x: 0.9671279, y: 0.000000016298577, z: -0.00000007362358, w: 0.2542903}
        inSlope: {x: 0.1460975, y: -0.000000044379846, z: -0.000000009282308, w: -0.583261}
        outSlope: {x: 0.1460975, y: -0.000000044379846, z: -0.000000009282308, w: -0.583261}
        tangentMode: 0
        weightedMode: 0
        inWeight: {x: 0.33333334, y: 0.33333334, z: 0.33333334, w: 0.33333334}
        outWeight: {x: 0.33333334, y: 0.33333334, z: 0.33333334, w: 0.33333334}
      - serializedVersion: 3
        time: 0.5833334
        value: {x: 0.9997536, y: -0.0000000012856888, z: -0.00000007539511, w: 0.022197489}
        inSlope: {x: 0.03987201, y: -0.00000013547101, z: 0.0000000023111029, w: -1.7963722}
        outSlope: {x: 0.03987201, y: -0.00000013547101, z: 0.0000000023111029, w: -1.7963722}
        tangentMode: 0
        weightedMode: 0
        inWeight: {x: 0.33333334, y: 0.33333334, z: 0.33333334, w: 0.33333334}
        outWeight: {x: 0.33333334, y: 0.33333334, z: 0.33333334, w: 0.33333334}
      - serializedVersion: 3
        time: 0.79166675
        value: {x: 0.9745495, y: -0.000000019774605, z: -0.00000007276703, w: -0.22417264}
        inSlope: {x: -0.016520994, y: -0.00000000562452, z: 0.0000000014675847, w: -0.07529612}
        outSlope: {x: -0.016520994, y: -0.00000000562452, z: 0.0000000014675847, w: -0.07529612}
        tangentMode: 0
        weightedMode: 0
        inWeight: {x: 0.33333334, y: 0.33333334, z: 0.33333334, w: 0.33333334}
        outWeight: {x: 0.33333334, y: 0.33333334, z: 0.33333334, w: 0.33333334}
      - serializedVersion: 3
        time: 0.8333334
        value: {x: 0.9754611, y: -0.000000019427336, z: -0.00000007284946, w: -0.21952794}
        inSlope: {x: 0.056245565, y: 0.000000021262885, z: -0.0000000050795848, w: 0.28440452}
        outSlope: {x: 0.056245565, y: 0.000000021262885, z: -0.0000000050795848, w: 0.28440452}
        tangentMode: 0
        weightedMode: 0
        inWeight: {x: 0.33333334, y: 0.33333334, z: 0.33333334, w: 0.33333334}
        outWeight: {x: 0.33333334, y: 0.33333334, z: 0.33333334, w: 0.33333334}
      m_PreInfinity: 2
      m_PostInfinity: 2
      m_RotationOrder: 4
    path: Armature.002/Principal/Cintura/Pierna.R
  m_CompressedRotationCurves: []
  m_EulerCurves: []
  m_PositionCurves: []
  m_ScaleCurves: []
  m_FloatCurves: []
  m_PPtrCurves: []
  m_SampleRate: 24
  m_WrapMode: 0
  m_Bounds:
    m_Center: {x: 0, y: 0, z: 0}
    m_Extent: {x: 0, y: 0, z: 0}
  m_ClipBindingConstant:
    genericBindings:
    - serializedVersion: 2
      path: 872000360
      attribute: 2
      script: {fileID: 0}
      typeID: 4
      customType: 0
      isPPtrCurve: 0
    - serializedVersion: 2
      path: 3388380683
      attribute: 2
      script: {fileID: 0}
      typeID: 4
      customType: 0
      isPPtrCurve: 0
    - serializedVersion: 2
      path: 1315138873
      attribute: 2
      script: {fileID: 0}
      typeID: 4
      customType: 0
      isPPtrCurve: 0
    - serializedVersion: 2
      path: 3026997338
      attribute: 2
      script: {fileID: 0}
      typeID: 4
      customType: 0
      isPPtrCurve: 0
    pptrCurveMapping: []
  m_AnimationClipSettings:
    serializedVersion: 2
    m_AdditiveReferencePoseClip: {fileID: 0}
    m_AdditiveReferencePoseTime: 0
    m_StartTime: 0
    m_StopTime: 0.8333333
    m_OrientationOffsetY: 0
    m_Level: 0
    m_CycleOffset: 0
    m_HasAdditiveReferencePose: 0
    m_LoopTime: 1
    m_LoopBlend: 0
    m_LoopBlendOrientation: 0
    m_LoopBlendPositionY: 0
    m_LoopBlendPositionXZ: 0
    m_KeepOriginalOrientation: 0
    m_KeepOriginalPositionY: 1
    m_KeepOriginalPositionXZ: 0
    m_HeightFromFeet: 0
    m_Mirror: 0
  m_EditorCurves: []
  m_EulerEditorCurves: []
  m_HasGenericRootTransform: 0
  m_HasMotionFloatCurves: 0
  m_Events: []
